<?xml version="1.0" standalone="no"?>
<!DOCTYPE svg PUBLIC "-//W3C//DTD SVG 1.1//EN" "http://www.w3.org/Graphics/SVG/1.1/DTD/svg11.dtd" >
<svg>
<metadata>
Created by FontForge 20110222 at Wed Jun 18 18:36:24 2014
 By deploy user
(c) 1985, 1987, 1988, 1994, 1999, 2002 Adobe Systems Incorporated. All rights reserved.
</metadata>
<defs>
<font id="HelveticaLTStd-Light" horiz-adv-x="556" >
  <font-face 
    font-family="Helvetica LT Std Light"
    font-weight="300"
    font-stretch="normal"
    units-per-em="1000"
    panose-1="2 11 4 3 2 2 2 2 2 4"
    ascent="718"
    descent="-282"
    x-height="518"
    cap-height="720"
    bbox="-164 -250 1000 979"
    underline-thickness="50"
    underline-position="-50"
    unicode-range="U+0020-FB02"
  />
<missing-glyph horiz-adv-x="500" 
d="M0 0v700h500v-700h-500zM250 395l170 255h-340zM280 350l170 -255v510zM80 50h340l-170 255zM50 605v-510l170 255z" />
    <glyph glyph-name=".notdef" horiz-adv-x="500" 
d="M0 0v700h500v-700h-500zM250 395l170 255h-340zM280 350l170 -255v510zM80 50h340l-170 255zM50 605v-510l170 255z" />
    <glyph glyph-name=".null" horiz-adv-x="0" 
 />
    <glyph glyph-name="nonmarkingreturn" horiz-adv-x="333" 
 />
    <glyph glyph-name="space" unicode=" " horiz-adv-x="278" 
 />
    <glyph glyph-name="exclam" unicode="!" horiz-adv-x="333" 
d="M144 181l-14 315v224h73v-224l-14 -315h-45zM203 0h-73v88h73v-88z" />
    <glyph glyph-name="quotedbl" unicode="&#x22;" horiz-adv-x="278" 
d="M57 494v226h52v-226h-52zM168 494v226h52v-226h-52z" />
    <glyph glyph-name="numbersign" unicode="#" 
d="M504 287v-59h-111l-32 -228h-59l31 228h-137l-34 -228h-59l34 228h-110v59h119l21 140h-112v59h120l32 212h60l-32 -212h136l31 212h59l-31 -212h100v-59h-108l-20 -140h102zM363 427h-136l-22 -140h138z" />
    <glyph glyph-name="dollar" unicode="$" 
d="M255 394v257q-57 0 -96 -35t-39 -90q0 -60 33.5 -86.5t101.5 -45.5zM302 322v-287q63 0 107.5 41.5t44.5 103.5q0 68 -38 97t-114 45zM302 -19v-76h-46v76q-179 10 -214 173q-3 17 -5 49h65q0 -68 43 -116t110 -52v297q-47 11 -78.5 24t-61.5 34t-44.5 54t-14.5 79
q0 82 58.5 133t141.5 49v61h46v-61q84 1 138 -46t57 -130h-65q-1 54 -38 88t-92 34v-266q56 -13 90 -26t66 -36.5t46 -61t14 -92.5q0 -83 -65.5 -134.5t-150.5 -53.5z" />
    <glyph glyph-name="percent" unicode="%" horiz-adv-x="889" 
d="M658 331q68 0 115.5 -48.5t47.5 -116.5q0 -69 -47 -117.5t-116 -48.5q-68 0 -117 49t-49 117q0 67 49 116t117 49zM657 274q-45 0 -76.5 -32.5t-31.5 -77.5q0 -43 32.5 -75t75.5 -32t75 32.5t32 76.5t-32 76t-75 32zM398 532q0 -68 -49 -116.5t-117 -48.5t-116.5 48.5
t-48.5 116.5t48.5 117t116.5 49t117 -49t49 -117zM232 424q44 0 76.5 32.5t32.5 75.5q0 44 -32.5 76.5t-76.5 32.5t-76 -32.5t-32 -76.5t32 -76t76 -32zM668 705l-397 -719h-52l397 719h52z" />
    <glyph glyph-name="ampersand" unicode="&#x26;" horiz-adv-x="667" 
d="M454 131l-205 244q-62 -29 -101 -78.5t-39 -106.5q0 -70 46 -112.5t116 -42.5q102 0 183 96zM378 540q19 43 -6 84.5t-79 41.5q-39 0 -67.5 -24t-28.5 -62q0 -46 75 -135q30 18 43 26.5t33.5 28t29.5 40.5zM307 400l181 -214q30 50 30 140h59q-5 -119 -50 -188l117 -138
h-81l-70 85q-46 -55 -100 -79.5t-127 -24.5q-96 0 -160.5 59.5t-64.5 154.5q0 76 47.5 131.5t124.5 91.5q-77 89 -77 161q0 66 46.5 103.5t115.5 37.5q66 0 108.5 -40.5t42.5 -98.5q0 -34 -10 -61t-34 -49.5t-42.5 -35.5t-55.5 -35z" />
    <glyph glyph-name="quotesingle" unicode="'" horiz-adv-x="222" 
d="M85 494v226h52v-226h-52z" />
    <glyph glyph-name="parenleft" unicode="(" horiz-adv-x="333" 
d="M226 739h51q-153 -222 -153 -468q0 -234 153 -462h-51q-89 123 -130 227.5t-41 239.5q0 131 42.5 239.5t128.5 223.5z" />
    <glyph glyph-name="parenright" unicode=")" horiz-adv-x="333" 
d="M107 -191h-51q153 222 153 468q0 234 -153 462h51q89 -123 130 -227.5t41 -239.5q0 -131 -42.5 -239.5t-128.5 -223.5z" />
    <glyph glyph-name="asterisk" unicode="*" horiz-adv-x="389" 
d="M62 646l111 -43v117h42v-117l114 42l15 -44l-114 -37l75 -106l-39 -24l-74 108l-78 -106l-35 27l77 101l-112 40z" />
    <glyph glyph-name="plus" unicode="+" horiz-adv-x="660" 
d="M300 280v220h60v-220h220v-60h-220v-220h-60v220h-220v60h220z" />
    <glyph glyph-name="comma" unicode="," horiz-adv-x="278" 
d="M175 88v-118q0 -84 -73 -107v37q34 21 34 66v34h-34v88h73z" />
    <glyph glyph-name="hyphen" unicode="-" horiz-adv-x="333" 
d="M40 291h253v-62h-253v62z" />
    <glyph glyph-name="period" unicode="." horiz-adv-x="278" 
d="M175 0h-73v88h73v-88z" />
    <glyph glyph-name="slash" unicode="/" horiz-adv-x="278" 
d="M288 739l-235 -829h-56l235 829h56z" />
    <glyph glyph-name="zero" unicode="0" 
d="M452 347q0 64 -7 113t-25 95t-54.5 71t-89.5 25q-173 0 -173 -311q0 -146 39.5 -223t135.5 -77q54 0 90.5 26.5t53.5 75t23.5 96.5t6.5 109zM278 705q60 0 104.5 -23t69.5 -57.5t40 -86t19.5 -97t4.5 -101.5q0 -76 -10.5 -135t-35.5 -111t-73.5 -80t-118.5 -28t-119 28
t-74 80.5t-35.5 113t-10.5 139.5q0 59 5 106.5t20.5 96t41.5 81.5t69.5 53.5t102.5 20.5z" />
    <glyph glyph-name="one" unicode="1" 
d="M302 0v524h-182v42q38 2 60 5.5t48 12t41 22.5t27.5 38.5t18.5 60.5h51v-705h-64z" />
    <glyph glyph-name="two" unicode="2" 
d="M137 474h-68q0 104 62.5 167.5t166.5 63.5q103 0 160 -55t57 -140q0 -53 -21 -96t-58 -73.5t-73.5 -52.5t-83 -47.5t-71.5 -44.5q-42 -32 -66 -64.5t-26 -77.5h393v-54h-461q1 56 12.5 96t42.5 76q33 39 76 72t78.5 53t71.5 43t60.5 43.5t40 51.5t15.5 71q0 67 -44 106
t-111 39q-68 0 -112 -52.5t-41 -124.5z" />
    <glyph glyph-name="three" unicode="3" 
d="M221 340v52q98 -1 150 29t52 106q0 62 -42.5 93t-107.5 31q-67 0 -109 -42.5t-42 -108.5h-64q0 94 68 158q52 47 160 47q88 0 144.5 -44.5t56.5 -129.5q0 -114 -100 -157q125 -39 125 -174q0 -90 -60.5 -150.5t-166.5 -63.5q-124 0 -182 48.5t-69 169.5h64
q0 -79 47.5 -121.5t127.5 -42.5q75 0 126.5 48t48.5 111q-3 81 -65 114.5t-162 26.5z" />
    <glyph glyph-name="four" unicode="4" 
d="M358 0v174h-322v55l328 469h58v-470h98v-54h-98v-174h-64zM358 602l-259 -374h259v374z" />
    <glyph glyph-name="five" unicode="5" 
d="M35 183h64q10 -70 56.5 -106.5t117.5 -36.5q77 0 123 51.5t46 128.5q0 80 -48 129.5t-127 49.5q-97 0 -153 -73l-53 7l57 365h350v-54h-296l-44 -237q41 27 74 36.5t81 9.5q99 0 161 -63t62 -170t-65.5 -170.5t-157.5 -63.5q-233 0 -248 197z" />
    <glyph glyph-name="six" unicode="6" 
d="M503 532h-66q-11 56 -45 87.5t-89 31.5q-36 0 -65 -11.5t-48 -27.5t-34 -45.5t-23 -52.5t-14.5 -61.5t-8.5 -60.5t-5 -60q20 27 32.5 41t35.5 33t51.5 27.5t65.5 8.5q106 0 165 -60.5t59 -166.5q0 -107 -59.5 -168t-166.5 -61q-114 0 -180.5 80t-66.5 257q0 54 6.5 104
t24.5 102t45.5 90t73.5 62t106 24q85 0 140.5 -45t65.5 -128zM288 388q-72 0 -115.5 -50.5t-43.5 -124.5q0 -68 40 -120.5t120 -52.5q82 0 121.5 52t39.5 125q0 171 -162 171z" />
    <glyph glyph-name="seven" unicode="7" 
d="M59 634v64h449v-60q-137 -155 -208 -333t-78 -305h-70q10 147 91 325t188 309h-372z" />
    <glyph glyph-name="eight" unicode="8" 
d="M279 345q-77 0 -124 -38t-47 -113q0 -67 48 -110.5t127 -43.5q71 0 118 44t47 114q0 71 -47.5 109t-121.5 38zM276 651q-62 0 -102.5 -33.5t-40.5 -93.5q0 -62 43 -93.5t107 -31.5q62 0 99 34t37 105q0 113 -143 113zM167 379q-56 35 -77 65t-21 89q0 73 59 124t142 48
q89 0 151 -43.5t62 -128.5q0 -111 -96 -158q58 -21 91.5 -67.5t33.5 -107.5q0 -102 -67 -158t-181 -56q-85 0 -152.5 55.5t-67.5 152.5q0 64 32 113t91 72z" />
    <glyph glyph-name="nine" unicode="9" 
d="M53 155h65q23 -115 137 -115q48 0 84 21t55.5 51.5t32.5 76.5t17.5 82t6.5 82l-2 2q-67 -110 -190 -110q-99 0 -158.5 62t-59.5 165q0 104 58 168.5t169 64.5q247 0 247 -356q0 -174 -70.5 -268.5t-186.5 -94.5q-86 0 -141.5 43t-63.5 126zM268 651q-80 -1 -121.5 -49
t-41.5 -132q0 -80 43 -125.5t120 -45.5q73 0 115.5 50.5t42.5 124.5q0 79 -42.5 127.5t-115.5 49.5z" />
    <glyph glyph-name="colon" unicode=":" horiz-adv-x="278" 
d="M175 0h-73v88h73v-88zM175 404h-73v88h73v-88z" />
    <glyph glyph-name="semicolon" unicode=";" horiz-adv-x="278" 
d="M175 88v-118q0 -84 -73 -107v37q34 21 34 66v34h-34v88h73zM175 404h-73v88h73v-88z" />
    <glyph glyph-name="less" unicode="&#x3c;" horiz-adv-x="660" 
d="M159 255l421 -197v-64l-500 235v53l500 223v-64z" />
    <glyph glyph-name="equal" unicode="=" horiz-adv-x="660" 
d="M580 378v-60h-500v60h500zM580 184v-60h-500v60h500z" />
    <glyph glyph-name="greater" unicode="&#x3e;" horiz-adv-x="660" 
d="M580 282v-53l-500 -235v64l421 197l-421 186v64z" />
    <glyph glyph-name="question" unicode="?" horiz-adv-x="500" 
d="M274 182h-58q-1 65 9 106.5t46 79.5q13 13 44.5 43t47 47t30.5 44.5t15 53.5q0 56 -42 92.5t-114 36.5t-113.5 -48t-39.5 -121h-61q-7 98 55 160.5t161 62.5q101 0 159.5 -51t58.5 -137q0 -40 -20 -75.5t-46 -58t-59.5 -55t-51.5 -61.5q-21 -33 -21 -119zM283 0h-73v88
h73v-88z" />
    <glyph glyph-name="at" unicode="@" horiz-adv-x="800" 
d="M684 167h59q-47 -86 -135.5 -136t-188.5 -50q-160 0 -269.5 111.5t-109.5 270.5q0 155 111 265.5t264 110.5q145 0 245 -90t100 -226q0 -115 -74.5 -203.5t-158.5 -88.5q-29 0 -53.5 13.5t-32.5 38.5q-48 -50 -119 -50q-63 0 -101 43.5t-38 106.5q0 69 30.5 138t89 117
t128.5 48q36 0 66.5 -17.5t45.5 -48.5l15 46h67l-101 -302q-6 -19 -9 -31.5t-3 -25t7.5 -18.5t21.5 -6q60 0 109.5 80t49.5 163q0 118 -82.5 190.5t-200.5 72.5q-137 0 -227 -97.5t-90 -235.5q0 -136 92 -230.5t227 -94.5q78 0 149 36t116 100zM337 196q63 1 114 91.5
t51 166.5q0 30 -19.5 51.5t-49.5 21.5q-73 0 -123.5 -80.5t-50.5 -158.5q0 -38 20.5 -65t57.5 -27z" />
    <glyph glyph-name="A" unicode="A" horiz-adv-x="667" 
d="M85 0h-70l283 720h77l276 -720h-70l-83 226h-328zM334 662l-141 -378h282z" />
    <glyph glyph-name="B" unicode="B" horiz-adv-x="667" 
d="M149 344v-286h173q121 0 170.5 28t49.5 117q0 83 -52.5 112t-159.5 29h-181zM149 662v-260h172q102 0 145 34t43 103q0 68 -45.5 95.5t-157.5 27.5h-157zM375 0h-294v720h260q236 0 236 -181q0 -70 -33 -108.5t-82 -46.5v-2q73 -11 110.5 -58.5t37.5 -120.5
q0 -203 -235 -203z" />
    <glyph glyph-name="C" unicode="C" horiz-adv-x="722" 
d="M662 511h-70q-20 90 -76 130t-151 40q-123 0 -186 -90.5t-63 -228.5q0 -51 7.5 -96t26 -87.5t47 -72.5t73 -48.5t101.5 -18.5q90 0 148.5 54t79.5 144h71q-27 -116 -102 -186t-210 -70q-81 0 -142 30t-97 83.5t-53.5 120t-17.5 145.5q0 196 91 287.5t244 91.5
q113 0 187.5 -59t91.5 -169z" />
    <glyph glyph-name="D" unicode="D" horiz-adv-x="722" 
d="M327 0h-246v720h246q72 0 124 -10.5t98 -43.5q64 -47 92 -132t28 -173q0 -178 -87 -273q-78 -88 -255 -88zM149 662v-604h163q106 0 169 33q34 18 59 48.5t37.5 68.5t18 75.5t5.5 77.5q0 208 -124 274q-50 27 -165 27h-163z" />
    <glyph glyph-name="E" unicode="E" horiz-adv-x="611" 
d="M570 0h-489v720h479v-58h-411v-260h371v-58h-371v-286h421v-58z" />
    <glyph glyph-name="F" unicode="F" 
d="M142 0h-68v720h464v-58h-396v-260h360v-58h-360v-344z" />
    <glyph glyph-name="G" unicode="G" horiz-adv-x="778" 
d="M630 314h-243v58h308v-372h-58v123q-40 -69 -104 -105.5t-165 -36.5q-142 0 -228.5 98.5t-86.5 284.5q0 167 85 271t248 104q117 0 197.5 -58t103.5 -170h-70q-18 79 -80.5 124.5t-145.5 45.5q-137 0 -203.5 -92t-66.5 -252q0 -125 71 -211.5t190 -86.5q65 0 124.5 30.5
t92.5 95.5q29 57 31 149z" />
    <glyph glyph-name="H" unicode="H" horiz-adv-x="722" 
d="M148 0h-68v720h68v-309h426v309h68v-720h-68v353h-426v-353z" />
    <glyph glyph-name="I" unicode="I" horiz-adv-x="278" 
d="M173 0h-68v720h68v-720z" />
    <glyph glyph-name="J" unicode="J" horiz-adv-x="500" 
d="M22 228h68q0 -33 1 -54.5t8 -49t20.5 -43t39 -27t61.5 -11.5q68 0 97.5 39t29.5 117v521h68v-523q0 -216 -203 -216q-58 0 -97.5 19.5t-58.5 57t-26.5 77t-7.5 93.5z" />
    <glyph glyph-name="K" unicode="K" horiz-adv-x="667" 
d="M153 0h-68v720h68v-373l369 373h77l-284 -287l334 -433h-83l-300 391l-113 -113v-278z" />
    <glyph glyph-name="L" unicode="L" 
d="M535 0h-454v720h68v-662h386v-58z" />
    <glyph glyph-name="M" unicode="M" horiz-adv-x="833" 
d="M146 0h-68v720h104l236 -635h2l232 635h103v-720h-68v642h-2l-236 -642h-64l-237 642h-2v-642z" />
    <glyph glyph-name="N" unicode="N" horiz-adv-x="722" 
d="M563 0l-414 628h-2v-628h-68v720h77l416 -629h2v629h68v-720h-79z" />
    <glyph glyph-name="O" unicode="O" horiz-adv-x="778" 
d="M53 359q-1 164 87.5 272t244.5 108q162 0 250.5 -107t88.5 -273q0 -163 -88 -270.5t-248 -107.5t-247.5 107.5t-87.5 270.5zM389 39q132 0 199.5 91.5t67.5 228.5q0 150 -72 236t-197 86q-88 0 -150 -46.5t-89 -117.5t-27 -158q0 -138 67.5 -229t200.5 -91z" />
    <glyph glyph-name="P" unicode="P" horiz-adv-x="611" 
d="M146 0h-68v720h263q235 0 235 -201q0 -47 -16 -83t-42.5 -57.5t-63.5 -35.5t-74 -19.5t-80 -5.5h-154v-318zM146 376h156q104 0 155 31t51 117q0 138 -186 138h-176v-286z" />
    <glyph glyph-name="Q" unicode="Q" horiz-adv-x="778" 
d="M611 68l96 -74l-38 -46l-106 82q-77 -49 -180 -49q-160 0 -247.5 107.5t-87.5 270.5q0 76 21 144t60.5 121t104.5 84t146 31q155 0 247 -100t92 -280q0 -186 -108 -291zM464 181l97 -74q90 86 90 252q0 156 -74.5 239t-194.5 83q-67 0 -119 -26.5t-83.5 -72.5
t-47.5 -102.5t-16 -120.5q0 -139 67.5 -229.5t200.5 -90.5q72 0 126 32l-82 63z" />
    <glyph glyph-name="R" unicode="R" horiz-adv-x="667" 
d="M148 385h212q81 0 130 35.5t49 107.5q0 134 -175 134h-216v-277zM362 327h-214v-327h-68v720h282q245 0 245 -189q0 -68 -27 -108t-90 -68q30 -10 49.5 -30.5t28 -51t11 -53.5t3.5 -60q2 -78 9 -110t21 -43v-7h-75q-16 29 -23 128.5t-9 110.5q-11 53 -46.5 70.5
t-96.5 17.5z" />
    <glyph glyph-name="S" unicode="S" horiz-adv-x="611" 
d="M43 215h66q15 -176 207 -176q91 0 137 42.5t46 106.5q0 45 -24 75t-63 44.5t-85.5 25.5t-93.5 24t-86 33t-63 59.5t-24 96.5q0 80 64.5 136.5t179.5 56.5q116 0 179.5 -61t62.5 -154h-65q0 78 -51 117.5t-126 39.5q-96 0 -141 -48.5t-35 -110.5q6 -37 34 -61.5t67 -37
t85 -22t90.5 -22t81 -33t59 -59.5t22.5 -96q0 -99 -69.5 -154.5t-193.5 -55.5q-117 0 -189 60.5t-72 173.5z" />
    <glyph glyph-name="T" unicode="T" 
d="M16 662v58h524v-58h-228v-662h-68v662h-228z" />
    <glyph glyph-name="U" unicode="U" horiz-adv-x="722" 
d="M82 271v449h68v-429q0 -133 50 -192.5t161 -59.5q114 0 162.5 61t48.5 191v429h68v-449q0 -141 -70.5 -215.5t-208.5 -74.5q-139 0 -209 75t-70 215z" />
    <glyph glyph-name="V" unicode="V" horiz-adv-x="611" 
d="M268 0l-250 720h71l217 -640l216 640h71l-250 -720h-75z" />
    <glyph glyph-name="W" unicode="W" horiz-adv-x="889" 
d="M482 720l164 -624h2l157 624h70l-189 -720h-75l-167 636h-2l-167 -636h-75l-186 720h68l155 -624h2l167 624h76z" />
    <glyph glyph-name="X" unicode="X" horiz-adv-x="611" 
d="M514 0l-210 318l-209 -318h-77l248 370l-238 350h79l197 -303l198 303h79l-236 -350l247 -370h-78z" />
    <glyph glyph-name="Y" unicode="Y" horiz-adv-x="611" 
d="M90 720l212 -347l217 347h79l-261 -406v-314h-68v309l-257 411h78z" />
    <glyph glyph-name="Z" unicode="Z" horiz-adv-x="611" 
d="M579 0h-548v57l461 605h-422v58h506v-57l-461 -605h464v-58z" />
    <glyph glyph-name="bracketleft" unicode="[" horiz-adv-x="333" 
d="M280 -191h-189v930h191v-50h-127v-830h125v-50z" />
    <glyph glyph-name="backslash" unicode="\" horiz-adv-x="278" 
d="M225 -90l-235 829h56l235 -829h-56z" />
    <glyph glyph-name="bracketright" unicode="]" horiz-adv-x="333" 
d="M242 739v-930h-191v50h127v830h-125v50h189z" />
    <glyph glyph-name="asciicircum" unicode="^" horiz-adv-x="660" 
d="M131 245h-58l230 453h52l231 -453h-57l-201 392z" />
    <glyph glyph-name="underscore" unicode="_" horiz-adv-x="500" 
d="M0 -75h500v-50h-500v50z" />
    <glyph glyph-name="grave" unicode="`" horiz-adv-x="333" 
d="M183 574l-138 139h78l111 -139h-51z" />
    <glyph glyph-name="a" unicode="a" 
d="M411 191v81q-51 -21 -155 -29q-146 -11 -146 -110q0 -45 33 -69t79 -24q78 0 133.5 38.5t55.5 112.5zM227 291l83 11q52 5 79 17q22 10 22 54q0 105 -129 105q-67 0 -105 -26.5t-46 -90.5h-61q6 87 64 129t149 42q86 0 137 -38t51 -123v-282q0 -36 12.5 -44.5t50.5 4.5
v-47q-30 -10 -47 -10q-13 0 -27 3q-46 7 -48 77q-77 -86 -193 -86q-73 0 -123 39t-50 110q0 132 181 156z" />
    <glyph glyph-name="b" unicode="b" horiz-adv-x="611" 
d="M139 261q0 -97 46.5 -159t128.5 -62q78 0 127 54t50 149q4 102 -42 168.5t-135 66.5q-79 0 -127 -63t-48 -154zM139 91v-91h-60v720h60v-285q28 46 78.5 71.5t106.5 25.5q112 0 171.5 -78.5t59.5 -195.5q0 -123 -57.5 -197.5t-176.5 -74.5q-52 0 -103.5 28t-76.5 77h-2z
" />
    <glyph glyph-name="c" unicode="c" 
d="M500 355h-61q-34 123 -154 123q-86 0 -130 -65t-44 -155q0 -91 43.5 -154.5t130.5 -63.5q66 0 107 37t52 102h64q-16 -90 -72.5 -141.5t-150.5 -51.5q-118 0 -178 75t-60 197q0 114 63.5 194t174.5 80q188 0 215 -177z" />
    <glyph glyph-name="d" unicode="d" horiz-adv-x="611" 
d="M472 261q0 91 -48 154t-127 63q-89 0 -135 -66.5t-42 -168.5q1 -95 50 -149t127 -54q82 0 128.5 62t46.5 159zM472 435v285h60v-720h-60v91h-2q-25 -49 -76.5 -77t-103.5 -28q-119 0 -176.5 74.5t-57.5 197.5q0 117 59.5 195.5t171.5 78.5q56 0 106.5 -25.5t78.5 -71.5z
" />
    <glyph glyph-name="e" unicode="e" 
d="M109 295h338q0 79 -43 131t-121 52q-75 0 -119.5 -52t-54.5 -131zM511 245h-402q-1 -88 45 -146.5t129 -58.5q59 0 101.5 31.5t55.5 87.5h67q-53 -173 -224 -173q-119 0 -178.5 74.5t-59.5 196.5q0 117 65 196t173 79t168.5 -74.5t59.5 -212.5z" />
    <glyph glyph-name="f" unicode="f" horiz-adv-x="278" 
d="M97 468h-77v50h77v82q0 134 110 134q29 0 50 -4v-55q-20 5 -36 5q-22 0 -36 -8t-19.5 -24.5t-7 -29.5t-1.5 -36v-64h100v-50h-100v-468h-60v468z" />
    <glyph glyph-name="g" unicode="g" horiz-adv-x="611" 
d="M472 257q0 97 -46.5 159t-128.5 62q-78 0 -127 -54t-50 -149q-4 -102 42 -168.5t135 -66.5q79 0 127 63t48 154zM472 427v91h60v-468q0 -56 -10.5 -100t-36.5 -82.5t-75.5 -59t-120.5 -20.5q-104 0 -159.5 46.5t-59.5 102.5h64q22 -95 155 -95q47 0 82 14t54.5 36
t30.5 55t14 64.5t2 71.5q-28 -46 -78.5 -71.5t-106.5 -25.5q-112 0 -171.5 78.5t-59.5 195.5q0 123 57.5 197.5t176.5 74.5q52 0 103.5 -28t76.5 -77h2z" />
    <glyph glyph-name="h" unicode="h" 
d="M132 0h-60v720h60v-274q40 43 78.5 64.5t88.5 21.5q107 0 158 -74q26 -38 26 -119v-339h-60v338q0 71 -31.5 105.5t-102.5 34.5q-53 0 -91 -29t-53 -72q-13 -36 -13 -98v-279z" />
    <glyph glyph-name="i" unicode="i" horiz-adv-x="222" 
d="M141 0h-60v518h60v-518zM144 631h-66v89h66v-89z" />
    <glyph glyph-name="j" unicode="j" horiz-adv-x="222" 
d="M88 518h60v-587q0 -75 -18.5 -105t-85.5 -30q-22 0 -39 4v53q49 -6 66 10.5t17 59.5v595zM151 720v-89h-66v89h66z" />
    <glyph glyph-name="k" unicode="k" horiz-adv-x="500" 
d="M128 0h-60v720h60v-448l254 246h82l-194 -187l217 -331h-67l-194 289l-98 -93v-196z" />
    <glyph glyph-name="l" unicode="l" horiz-adv-x="222" 
d="M141 0h-60v720h60v-720z" />
    <glyph glyph-name="m" unicode="m" horiz-adv-x="833" 
d="M124 279v-279h-60v518h60v-78h2q23 44 66 68t94 24q66 0 99.5 -26t52.5 -74q51 100 169 100q51 0 84.5 -16.5t49.5 -48t21.5 -64t5.5 -76.5v-327h-60v358q0 59 -25 89.5t-86 30.5q-73 0 -117 -59q-34 -44 -34 -140v-279h-60v358q0 59 -25 89.5t-86 30.5q-73 0 -117 -59
q-34 -44 -34 -140z" />
    <glyph glyph-name="n" unicode="n" 
d="M132 279v-279h-60v518h60v-72q40 43 78.5 64.5t88.5 21.5q107 0 158 -74q26 -38 26 -119v-339h-60v338q0 71 -31.5 105.5t-102.5 34.5q-53 0 -91 -29t-53 -72q-13 -36 -13 -98z" />
    <glyph glyph-name="o" unicode="o" 
d="M278 -14q-105 2 -172.5 72.5t-67.5 200.5q0 119 62.5 196t177.5 77q117 0 178.5 -76.5t61.5 -196.5q0 -123 -65.5 -198t-174.5 -75zM454 259q-1 99 -43.5 159t-132.5 60q-88 0 -132 -63t-44 -156q0 -99 46 -159t130 -60q88 0 132 63.5t44 155.5z" />
    <glyph glyph-name="p" unicode="p" horiz-adv-x="611" 
d="M139 257q0 -91 48 -154t127 -63q89 0 135 66.5t42 168.5q-1 95 -50 149t-127 54q-82 0 -128.5 -62t-46.5 -159zM139 83v-287h-60v722h60v-91h2q25 49 76.5 77t103.5 28q119 0 176.5 -74.5t57.5 -197.5q0 -117 -59.5 -195.5t-171.5 -78.5q-56 0 -106.5 25.5t-78.5 71.5z
" />
    <glyph glyph-name="q" unicode="q" horiz-adv-x="611" 
d="M472 261q0 91 -48 154t-127 63q-89 0 -135 -66.5t-42 -168.5q1 -95 50 -149t127 -54q82 0 128.5 62t46.5 159zM472 427v91h60v-722h-60v287q-28 -46 -78.5 -71.5t-106.5 -25.5q-112 0 -171.5 78.5t-59.5 195.5q0 123 57.5 197.5t176.5 74.5q52 0 103.5 -28t76.5 -77h2z
" />
    <glyph glyph-name="r" unicode="r" horiz-adv-x="333" 
d="M135 254v-254h-60v518h60v-97h2q24 61 63 86t106 25v-65q-171 4 -171 -213z" />
    <glyph glyph-name="s" unicode="s" horiz-adv-x="500" 
d="M46 162h61q14 -66 50.5 -94t104.5 -28q62 0 95 28t33 68q0 41 -34 63t-83 31t-98 21t-83 44.5t-34 88.5q0 66 48.5 107t133.5 41q179 0 200 -163h-61q-15 109 -140 109q-56 0 -86.5 -24t-30.5 -65q0 -33 24.5 -54t61.5 -29.5t80 -20.5t80 -25.5t61.5 -44.5t24.5 -78
q0 -72 -58 -111.5t-153 -39.5q-89 0 -141 50t-56 126z" />
    <glyph glyph-name="t" unicode="t" horiz-adv-x="278" 
d="M254 47v-49q-56 -12 -69 -12q-46 0 -69 23.5t-23 79.5v379h-73v50h73v144h60v-144h97v-50h-97v-355q0 -43 8.5 -58t43.5 -15q21 0 49 7z" />
    <glyph glyph-name="u" unicode="u" 
d="M423 236v282h60v-518h-60v72q-23 -26 -38.5 -40t-51 -30t-77.5 -16q-184 0 -184 191v341h60v-340q0 -138 133 -138q73 0 115.5 54.5t42.5 141.5z" />
    <glyph glyph-name="v" unicode="v" horiz-adv-x="500" 
d="M215 0l-198 518h65l168 -444l168 444h65l-201 -518h-67z" />
    <glyph glyph-name="w" unicode="w" horiz-adv-x="722" 
d="M396 518l114 -438l136 438h61l-168 -518h-64l-113 435h-2l-115 -435h-72l-158 518h60l134 -442l120 442h67z" />
    <glyph glyph-name="x" unicode="x" horiz-adv-x="500" 
d="M409 0l-157 224l-161 -224h-73l199 268l-183 250h74l143 -206l147 206h76l-187 -250l194 -268h-72z" />
    <glyph glyph-name="y" unicode="y" horiz-adv-x="500" 
d="M68 -197v56q32 -6 50 -6q31 0 49 23t33 67.5t19 52.5l-201 522h67l166 -445l166 445h65l-193 -511q-18 -48 -28 -73t-26.5 -56.5t-30.5 -46t-34.5 -25t-44.5 -10.5q-29 0 -57 7z" />
    <glyph glyph-name="z" unicode="z" horiz-adv-x="500" 
d="M467 0h-434v53l344 415h-321v50h398v-53l-344 -415h357v-50z" />
    <glyph glyph-name="braceleft" unicode="{" horiz-adv-x="333" 
d="M127 395v182q0 91 30.5 127t114.5 33q-81 -28 -81 -121v-192q0 -65 -16.5 -100.5t-65.5 -48.5v-2q47 -11 64.5 -43t17.5 -92v-206q0 -51 20.5 -79.5t67.5 -41.5v-2q-86 -1 -119 32t-33 112v204q0 50 -17 78.5t-65 37.5v2q52 15 67 40.5t15 79.5z" />
    <glyph glyph-name="bar" unicode="|" horiz-adv-x="222" 
d="M81 750h60v-1000h-60v1000z" />
    <glyph glyph-name="braceright" unicode="}" horiz-adv-x="333" 
d="M203 599v-204q0 -50 17 -78.5t65 -37.5v-2q-52 -15 -67 -40.5t-15 -79.5v-182q0 -91 -30.5 -127t-114.5 -33q81 28 81 121v192q0 65 16.5 100.5t65.5 48.5v2q-47 11 -64.5 43t-17.5 92v206q0 51 -20.5 79.5t-67.5 41.5v2q86 1 119 -32t33 -112z" />
    <glyph glyph-name="asciitilde" unicode="~" horiz-adv-x="660" 
d="M221 324q39 0 117 -36q80 -36 103 -36q53 0 99 87l40 -34q-57 -109 -140 -109q-33 0 -135 42q-5 2 -24.5 11.5t-33 14t-26.5 4.5q-19 0 -35.5 -8t-30.5 -25.5t-22 -28.5t-20 -32l-33 47q20 30 34.5 47.5t44 36.5t62.5 19z" />
    <glyph glyph-name="uni00A0" unicode="&#xa0;" horiz-adv-x="278" 
 />
    <glyph glyph-name="exclamdown" unicode="&#xa1;" horiz-adv-x="333" 
d="M144 352h45l14 -315v-224h-73v224zM203 445h-73v87h73v-87z" />
    <glyph glyph-name="cent" unicode="&#xa2;" 
d="M191 68l133 405q-16 5 -41 5q-86 0 -130 -65t-44 -155q0 -61 20.5 -112.5t61.5 -77.5zM367 456l-135 -409q28 -7 51 -7q66 0 107 37t52 102h64q-12 -82 -70.5 -137.5t-152.5 -55.5q-34 0 -68 8l-45 -135h-47l49 150q-63 31 -95 96t-32 153q0 129 66.5 201.5t171.5 72.5
q29 0 59 -5l40 120h48l-44 -134q94 -40 112 -158h-61q-18 69 -70 101z" />
    <glyph glyph-name="sterling" unicode="&#xa3;" 
d="M184 365h166v-42h-151q11 -39 11 -68q0 -90 -96 -188l2 -2q52 27 89 27q50 0 100 -21t83 -21q32 0 55.5 14.5t52.5 42.5l34 -51q-45 -41 -80 -55.5t-94 -14.5q-21 0 -79 22t-98 22q-32 0 -105 -33l-35 58q106 77 106 180q0 46 -21 88h-99v42h81q-1 2 -19 34.5t-26 59.5
t-8 63q0 82 58 132.5t165 50.5q101 0 164.5 -59t62.5 -158h-66q-3 78 -45.5 120.5t-114.5 42.5q-65 0 -112.5 -34.5t-47.5 -97.5q0 -27 9 -51t30.5 -58t27.5 -45z" />
    <glyph glyph-name="currency" unicode="&#xa4;" 
d="M32 110l43 42q-48 70 -48 148q0 83 48 151l-43 43l52 53l44 -43q65 49 154 49q75 0 146 -49l44 43l52 -53l-43 -43q48 -69 48 -156q0 -72 -48 -143l43 -42l-52 -53l-44 43q-68 -50 -155 -50q-74 0 -145 50l-44 -43zM282 481q-78 2 -131 -50.5t-52 -130.5
q-1 -72 52 -125.5t125 -53.5q75 0 128.5 53t53.5 129q0 72 -52 125.5t-124 52.5z" />
    <glyph glyph-name="yen" unicode="&#xa5;" 
d="M80 720l197 -347l202 347h73l-171 -286h111v-54h-144l-38 -66v-42h182v-54h-182v-218h-64v218h-182v54h182v42l-38 66h-144v54h111l-171 286h76z" />
    <glyph glyph-name="brokenbar" unicode="&#xa6;" horiz-adv-x="222" 
d="M81 675h60v-350h-60v350zM81 175h60v-350h-60v350z" />
    <glyph glyph-name="section" unicode="&#xa7;" 
d="M363 341l-173 106q-88 -37 -88 -104q0 -34 23 -59.5t62 -51.5l178 -115q89 49 89 113q0 35 -25 61t-66 50zM281 102l-131 82q-51 32 -76.5 67t-25.5 84q0 48 30 86t77 58q-27 30 -40 55.5t-13 59.5q0 62 48 103.5t133 41.5q83 0 128.5 -48t44.5 -131h-54q-2 63 -31.5 94
t-92.5 31q-50 0 -81 -24.5t-31 -72.5q0 -37 35 -71t85.5 -61.5t101 -56.5t85.5 -70t35 -89q0 -52 -28 -86t-82 -70q58 -54 58 -110q0 -74 -50 -114.5t-126 -40.5q-84 0 -133 49t-53 133h61q0 -62 32 -95t94 -33q45 0 78 25t33 69q0 23 -9 42.5t-30 38.5t-33 27.5t-39 26.5z
" />
    <glyph glyph-name="dieresis" unicode="&#xa8;" horiz-adv-x="333" 
d="M60 584v102h65v-102h-65zM219 584v102h65v-102h-65z" />
    <glyph glyph-name="copyright" unicode="&#xa9;" horiz-adv-x="800" 
d="M401 -19q-157 0 -268.5 111.5t-111.5 268.5q0 156 111.5 267t268.5 111t267.5 -111t110.5 -267q0 -158 -110.5 -269t-267.5 -111zM401 31q137 0 227.5 95t90.5 235q0 139 -90.5 233.5t-227.5 94.5q-138 0 -229 -94.5t-91 -233.5q0 -140 91 -235t229 -95zM539 292h54
q-7 -66 -57.5 -106.5t-117.5 -40.5q-94 0 -152 62t-58 157q0 96 56 156.5t151 60.5q70 0 119 -38t59 -105h-54q-8 44 -42.5 71.5t-80.5 27.5q-72 0 -111 -49t-39 -123q0 -72 41 -124t111 -52q46 0 80.5 28.5t40.5 74.5z" />
    <glyph glyph-name="ordfeminine" unicode="&#xaa;" horiz-adv-x="334" 
d="M245 534v49q-30 -12 -101 -18q-97 -7 -97 -66q0 -27 22.5 -42.5t52.5 -15.5q51 0 87 24t36 69zM125 594l54 7q36 3 52 10q14 5 14 32q0 30 -20.5 48t-63.5 18q-89 0 -98 -73h-40q4 52 42 77.5t97 25.5q122 0 122 -97v-169q0 -21 8 -26.5t33 2.5v-28q-23 -8 -48 -5
q-30 5 -32 47q-49 -52 -125 -52q-47 0 -79.5 23t-32.5 66q0 79 117 94z" />
    <glyph glyph-name="guillemotleft" unicode="&#xab;" 
d="M297 228v63l146 113v-63l-104 -82l104 -80v-62zM113 228v63l146 113v-63l-104 -82l104 -80v-62z" />
    <glyph glyph-name="logicalnot" unicode="&#xac;" horiz-adv-x="660" 
d="M516 112v206h-436v60h500v-266h-64z" />
    <glyph glyph-name="uni00AD" unicode="&#xad;" horiz-adv-x="333" 
d="M40 291h253v-62h-253v62z" />
    <glyph glyph-name="registered" unicode="&#xae;" horiz-adv-x="800" 
d="M401 -19q-157 0 -268.5 111.5t-111.5 268.5q0 156 111.5 267t268.5 111t267.5 -111t110.5 -267q0 -158 -110.5 -269t-267.5 -111zM401 31q137 0 227.5 95t90.5 235q0 139 -90.5 233.5t-227.5 94.5q-138 0 -229 -94.5t-91 -233.5q0 -140 91 -235t229 -95zM462 344
l128 -195h-62l-121 195h-95v-195h-52v423h185q81 0 115.5 -28.5t34.5 -83.5q0 -112 -133 -116zM312 385h79h23h26t23.5 1.5t24.5 4.5t19.5 8.5t17.5 13.5t9.5 20t4.5 28q0 31 -17 48.5t-37.5 21.5t-51.5 4h-121v-150z" />
    <glyph glyph-name="macron" unicode="&#xaf;" horiz-adv-x="333" 
d="M23 612v45h296v-45h-296z" />
    <glyph glyph-name="degree" unicode="&#xb0;" horiz-adv-x="400" 
d="M350 555q0 -62 -44 -106t-106 -44t-106 44t-44 106q-1 61 43.5 105.5t106.5 44.5t106 -44.5t44 -105.5zM310 555q0 45 -32.5 77.5t-78.5 32.5q-45 0 -77.5 -32.5t-31.5 -77.5q0 -46 32 -78t78 -32q45 0 77.5 32t32.5 78z" />
    <glyph glyph-name="plusminus" unicode="&#xb1;" horiz-adv-x="660" 
d="M300 330v170h60v-170h220v-60h-220v-170h-60v170h-220v60h220zM80 0v60h500v-60h-500z" />
    <glyph glyph-name="twosuperior" unicode="&#xb2;" horiz-adv-x="333" 
d="M72 600h-44q0 63 40.5 101t108.5 38q67 0 104 -33t37 -84q0 -39 -23 -70.5t-50 -47t-68 -37t-58 -33.5q-58 -40 -60 -86h255v-32h-299q0 66 35 103q31 33 74.5 60t74 41.5t52.5 40t22 59.5q0 40 -29 63.5t-72 23.5q-44 0 -73 -31.5t-27 -75.5z" />
    <glyph glyph-name="threesuperior" unicode="&#xb3;" horiz-adv-x="333" 
d="M133 520v31q64 0 97.5 17.5t33.5 63.5q0 37 -27.5 56t-69.5 19q-44 0 -71.5 -25.5t-27.5 -65.5h-41q0 57 44 95q34 28 104 28q57 0 94 -27t37 -77q0 -68 -65 -95q81 -23 81 -104q0 -54 -39.5 -90.5t-108.5 -37.5q-81 0 -118.5 29t-44.5 101h42q0 -47 31 -72.5t83 -25.5
q49 0 82 29t31 66q-3 94 -147 85z" />
    <glyph glyph-name="acute" unicode="&#xb4;" horiz-adv-x="333" 
d="M160 574h-51l111 139h77z" />
    <glyph glyph-name="mu" unicode="&#xb5;" 
d="M423 236v282h60v-518h-60v72q-23 -26 -38.5 -40t-51 -30t-77.5 -16q-72 0 -124 32v-222h-60v722h60v-340q0 -138 133 -138q73 0 115.5 54.5t42.5 141.5z" />
    <glyph glyph-name="paragraph" unicode="&#xb6;" horiz-adv-x="650" 
d="M258 -146v482q-77 -1 -134.5 56t-57.5 134q0 93 59 143.5t164 50.5h217v-866h-60v799h-128v-799h-60z" />
    <glyph glyph-name="periodcentered" unicode="&#xb7;" horiz-adv-x="278" 
d="M139 398q19 0 33.5 -14t14.5 -34t-14 -34.5t-34 -14.5t-34.5 14.5t-14.5 34.5q0 19 15 33.5t34 14.5z" />
    <glyph glyph-name="cedilla" unicode="&#xb8;" horiz-adv-x="333" 
d="M54 -188l15 30q45 -15 64 -15q25 0 45.5 12t20.5 35q0 19 -14.5 29t-35.5 10q-14 0 -44 -8l-15 13l60 82h39l-47 -59q24 6 36 6q31 0 52.5 -16t24.5 -36q9 -50 -24 -76t-86 -26q-41 0 -91 19z" />
    <glyph glyph-name="onesuperior" unicode="&#xb9;" horiz-adv-x="333" 
d="M205 316v314h-118v26q31 2 48 4.5t35.5 11t28.5 24.5t15 43h33v-423h-42z" />
    <glyph glyph-name="ordmasculine" unicode="&#xba;" horiz-adv-x="334" 
d="M167 411q-68 2 -112 44t-44 120q0 72 40.5 118t115.5 46q76 0 116 -46t40 -118q0 -74 -43 -119t-113 -45zM50 575q0 -59 31 -96.5t86 -37.5q57 0 87 39.5t30 94.5q0 59 -29 96.5t-88 37.5q-58 0 -87.5 -39.5t-29.5 -94.5z" />
    <glyph glyph-name="guillemotright" unicode="&#xbb;" 
d="M443 293v-63l-146 -113v63l104 82l-104 80v62zM259 293v-63l-146 -113v63l104 82l-104 80v62z" />
    <glyph glyph-name="onequarter" unicode="&#xbc;" horiz-adv-x="834" 
d="M689 0v104h-209v33l213 282h38v-282h63v-33h-63v-104h-42zM689 361l-168 -224h168v224zM219 -14h-51l444 719h51zM158 316v314h-118v26q31 2 48 4.5t35.5 11t28.5 24.5t15 43h33v-423h-42z" />
    <glyph glyph-name="onehalf" unicode="&#xbd;" horiz-adv-x="834" 
d="M179 -14h-51l444 719h51zM158 316v314h-118v26q31 2 48 4.5t35.5 11t28.5 24.5t15 43h33v-423h-42zM548 284h-44q0 63 40.5 101t108.5 38q67 0 104 -33t37 -84q0 -39 -23 -70.5t-50 -47t-68 -37t-58 -33.5q-58 -40 -60 -86h255v-32h-299q0 66 35 103q31 33 74.5 60
t74 41.5t52.5 40t22 59.5q0 40 -29 63.5t-72 23.5q-44 0 -73 -31.5t-27 -75.5z" />
    <glyph glyph-name="threequarters" unicode="&#xbe;" horiz-adv-x="834" 
d="M689 361l-168 -224h168v224zM689 0v104h-209v33l213 282h38v-282h63v-33h-63v-104h-42zM162 520v31q64 0 97.5 17.5t33.5 63.5q0 37 -27.5 56t-69.5 19q-44 0 -71.5 -25.5t-27.5 -65.5h-41q0 57 44 95q34 28 104 28q57 0 94 -27t37 -77q0 -68 -65 -95q81 -23 81 -104
q0 -54 -39.5 -90.5t-108.5 -37.5q-81 0 -118.5 29t-44.5 101h42q0 -47 31 -72.5t83 -25.5q49 0 82 29t31 66q-3 94 -147 85zM259 -14h-51l444 719h51z" />
    <glyph glyph-name="questiondown" unicode="&#xbf;" horiz-adv-x="500" 
d="M401 16h61q7 -98 -55 -160.5t-161 -62.5q-101 0 -159.5 51t-58.5 137q0 40 20 75.5t46 58t59.5 55t51.5 61.5q21 33 21 119h58q1 -65 -9 -106.5t-46 -79.5q-13 -13 -44.5 -43t-47 -47t-30.5 -44.5t-15 -53.5q0 -56 42 -92.5t114 -36.5t113.5 48t39.5 121zM217 532h73v-88
h-73v88z" />
    <glyph glyph-name="Agrave" unicode="&#xc0;" horiz-adv-x="667" 
d="M85 0h-70l283 720h77l276 -720h-70l-83 226h-328zM334 662l-141 -378h282zM350 776l-138 139h78l111 -139h-51z" />
    <glyph glyph-name="Aacute" unicode="&#xc1;" horiz-adv-x="667" 
d="M85 0h-70l283 720h77l276 -720h-70l-83 226h-328zM334 662l-141 -378h282zM327 776h-51l111 139h77z" />
    <glyph glyph-name="Acircumflex" unicode="&#xc2;" horiz-adv-x="667" 
d="M85 0h-70l283 720h77l276 -720h-70l-83 226h-328zM334 662l-141 -378h282zM338 878l-82 -102h-65l114 139h67l113 -139h-65z" />
    <glyph glyph-name="Atilde" unicode="&#xc3;" horiz-adv-x="667" 
d="M85 0h-70l283 720h77l276 -720h-70l-83 226h-328zM334 662l-141 -378h282zM219 788h-36q3 31 20 59q15 22 39 32t49 4q16 -3 60 -23t63 -20q34 0 44 50h38q-1 -9 -8 -38q-26 -60 -74 -60q-29 0 -76.5 22.5t-69.5 22.5q-20 0 -31 -13t-18 -36z" />
    <glyph glyph-name="Adieresis" unicode="&#xc4;" horiz-adv-x="667" 
d="M85 0h-70l283 720h77l276 -720h-70l-83 226h-328zM334 662l-141 -378h282zM227 786v102h65v-102h-65zM386 786v102h65v-102h-65z" />
    <glyph glyph-name="Aring" unicode="&#xc5;" horiz-adv-x="667" 
d="M85 0h-70l283 720h77l276 -720h-70l-83 226h-328zM334 662l-141 -378h282zM354 780q-41 0 -70.5 29.5t-29.5 69.5t30 70t70 30t69.5 -30t29.5 -70q0 -41 -29.5 -70t-69.5 -29zM354 813q26 0 46 20t20 46q0 27 -19.5 47t-46.5 20t-47 -20t-20 -47t20 -46.5t47 -19.5z" />
    <glyph glyph-name="AE" unicode="&#xc6;" horiz-adv-x="1000" 
d="M73 0h-68l313 720h630v-58h-408v-260h371v-58h-371v-286h420v-58h-488v226h-303zM358 662l-161 -378h275v378h-114z" />
    <glyph glyph-name="Ccedilla" unicode="&#xc7;" horiz-adv-x="722" 
d="M662 511h-70q-20 90 -76 130t-151 40q-123 0 -186 -90.5t-63 -228.5q0 -51 7.5 -96t26 -87.5t47 -72.5t73 -48.5t101.5 -18.5q90 0 148.5 54t79.5 144h71q-26 -113 -98 -182.5t-202 -72.5l-33 -41q24 6 36 6q31 0 52.5 -16t24.5 -36q9 -50 -24 -76t-86 -26q-41 0 -91 19
l15 30q45 -15 64 -15q25 0 45.5 12t20.5 35q0 19 -14.5 29t-35.5 10q-14 0 -44 -8l-15 13l47 64q-97 6 -163 60.5t-93.5 134.5t-27.5 183q0 196 91 287.5t244 91.5q113 0 187.5 -59t91.5 -169z" />
    <glyph glyph-name="Egrave" unicode="&#xc8;" horiz-adv-x="611" 
d="M570 0h-489v720h479v-58h-411v-260h371v-58h-371v-286h421v-58zM322 776l-138 139h78l111 -139h-51z" />
    <glyph glyph-name="Eacute" unicode="&#xc9;" horiz-adv-x="611" 
d="M570 0h-489v720h479v-58h-411v-260h371v-58h-371v-286h421v-58zM299 776h-51l111 139h77z" />
    <glyph glyph-name="Ecircumflex" unicode="&#xca;" horiz-adv-x="611" 
d="M570 0h-489v720h479v-58h-411v-260h371v-58h-371v-286h421v-58zM310 878l-82 -102h-65l114 139h67l113 -139h-65z" />
    <glyph glyph-name="Edieresis" unicode="&#xcb;" horiz-adv-x="611" 
d="M570 0h-489v720h479v-58h-411v-260h371v-58h-371v-286h421v-58zM199 786v102h65v-102h-65zM358 786v102h65v-102h-65z" />
    <glyph glyph-name="Igrave" unicode="&#xcc;" horiz-adv-x="278" 
d="M173 0h-68v720h68v-720zM156 776l-138 139h78l111 -139h-51z" />
    <glyph glyph-name="Iacute" unicode="&#xcd;" horiz-adv-x="278" 
d="M173 0h-68v720h68v-720zM112 776h-51l111 139h77z" />
    <glyph glyph-name="Icircumflex" unicode="&#xce;" horiz-adv-x="278" 
d="M173 0h-68v720h68v-720zM123 878l-82 -102h-65l114 139h67l113 -139h-65z" />
    <glyph glyph-name="Idieresis" unicode="&#xcf;" horiz-adv-x="278" 
d="M173 0h-68v720h68v-720zM12 786v102h65v-102h-65zM171 786v102h65v-102h-65z" />
    <glyph glyph-name="Eth" unicode="&#xd0;" horiz-adv-x="722" 
d="M149 662v-251h161v-58h-161v-295h163q106 0 169 33q34 18 59 48.5t37.5 68.5t18 75.5t5.5 77.5q0 208 -124 274q-50 27 -165 27h-163zM81 411v309h246q72 0 124 -10.5t98 -43.5q64 -47 92 -132t28 -173q0 -178 -87 -273q-78 -88 -255 -88h-246v353h-71v58h71z" />
    <glyph glyph-name="Ntilde" unicode="&#xd1;" horiz-adv-x="722" 
d="M563 0l-414 628h-2v-628h-68v720h77l416 -629h2v629h68v-720h-79zM247 788h-36q3 31 20 59q15 22 39 32t49 4q16 -3 60 -23t63 -20q34 0 44 50h38q-1 -9 -8 -38q-26 -60 -74 -60q-29 0 -76.5 22.5t-69.5 22.5q-20 0 -31 -13t-18 -36z" />
    <glyph glyph-name="Ograve" unicode="&#xd2;" horiz-adv-x="778" 
d="M53 359q-1 164 87.5 272t244.5 108q162 0 250.5 -107t88.5 -273q0 -163 -88 -270.5t-248 -107.5t-247.5 107.5t-87.5 270.5zM389 39q132 0 199.5 91.5t67.5 228.5q0 150 -72 236t-197 86q-88 0 -150 -46.5t-89 -117.5t-27 -158q0 -138 67.5 -229t200.5 -91zM406 776
l-138 139h78l111 -139h-51z" />
    <glyph glyph-name="Oacute" unicode="&#xd3;" horiz-adv-x="778" 
d="M53 359q-1 164 87.5 272t244.5 108q162 0 250.5 -107t88.5 -273q0 -163 -88 -270.5t-248 -107.5t-247.5 107.5t-87.5 270.5zM389 39q132 0 199.5 91.5t67.5 228.5q0 150 -72 236t-197 86q-88 0 -150 -46.5t-89 -117.5t-27 -158q0 -138 67.5 -229t200.5 -91zM383 776h-51
l111 139h77z" />
    <glyph glyph-name="Ocircumflex" unicode="&#xd4;" horiz-adv-x="778" 
d="M53 359q-1 164 87.5 272t244.5 108q162 0 250.5 -107t88.5 -273q0 -163 -88 -270.5t-248 -107.5t-247.5 107.5t-87.5 270.5zM389 39q132 0 199.5 91.5t67.5 228.5q0 150 -72 236t-197 86q-88 0 -150 -46.5t-89 -117.5t-27 -158q0 -138 67.5 -229t200.5 -91zM394 878
l-82 -102h-65l114 139h67l113 -139h-65z" />
    <glyph glyph-name="Otilde" unicode="&#xd5;" horiz-adv-x="778" 
d="M53 359q-1 164 87.5 272t244.5 108q162 0 250.5 -107t88.5 -273q0 -163 -88 -270.5t-248 -107.5t-247.5 107.5t-87.5 270.5zM389 39q132 0 199.5 91.5t67.5 228.5q0 150 -72 236t-197 86q-88 0 -150 -46.5t-89 -117.5t-27 -158q0 -138 67.5 -229t200.5 -91zM275 788h-36
q3 31 20 59q15 22 39 32t49 4q16 -3 60 -23t63 -20q34 0 44 50h38q-1 -9 -8 -38q-26 -60 -74 -60q-29 0 -76.5 22.5t-69.5 22.5q-20 0 -31 -13t-18 -36z" />
    <glyph glyph-name="Odieresis" unicode="&#xd6;" horiz-adv-x="778" 
d="M53 359q-1 164 87.5 272t244.5 108q162 0 250.5 -107t88.5 -273q0 -163 -88 -270.5t-248 -107.5t-247.5 107.5t-87.5 270.5zM389 39q132 0 199.5 91.5t67.5 228.5q0 150 -72 236t-197 86q-88 0 -150 -46.5t-89 -117.5t-27 -158q0 -138 67.5 -229t200.5 -91zM283 786v102
h65v-102h-65zM442 786v102h65v-102h-65z" />
    <glyph glyph-name="multiply" unicode="&#xd7;" horiz-adv-x="660" 
d="M331 216l-211 -210l-37 36l211 211l-211 211l37 36l211 -210l210 210l37 -36l-210 -211l210 -211l-37 -36z" />
    <glyph glyph-name="Oslash" unicode="&#xd8;" horiz-adv-x="778" 
d="M174 147l398 457q-70 77 -188 77q-67 0 -119 -26.5t-83.5 -72.5t-47.5 -102.5t-16 -120.5q0 -127 56 -212zM604 560l-397 -453q68 -68 179 -68q132 0 199.5 91.5t67.5 228.5q0 117 -49 201zM614 652l83 95l39 -35l-87 -100q31 -35 51.5 -102t20.5 -151q0 -163 -88 -270.5
t-248 -107.5q-132 0 -219 79l-85 -97l-39 34l89 101q-81 100 -81 261q0 165 89.5 272.5t242.5 107.5q144 0 232 -87z" />
    <glyph glyph-name="Ugrave" unicode="&#xd9;" horiz-adv-x="722" 
d="M82 271v449h68v-429q0 -133 50 -192.5t161 -59.5q114 0 162.5 61t48.5 191v429h68v-449q0 -141 -70.5 -215.5t-208.5 -74.5q-139 0 -209 75t-70 215zM378 776l-138 139h78l111 -139h-51z" />
    <glyph glyph-name="Uacute" unicode="&#xda;" horiz-adv-x="722" 
d="M82 271v449h68v-429q0 -133 50 -192.5t161 -59.5q114 0 162.5 61t48.5 191v429h68v-449q0 -141 -70.5 -215.5t-208.5 -74.5q-139 0 -209 75t-70 215zM355 776h-51l111 139h77z" />
    <glyph glyph-name="Ucircumflex" unicode="&#xdb;" horiz-adv-x="722" 
d="M82 271v449h68v-429q0 -133 50 -192.5t161 -59.5q114 0 162.5 61t48.5 191v429h68v-449q0 -141 -70.5 -215.5t-208.5 -74.5q-139 0 -209 75t-70 215zM366 878l-82 -102h-65l114 139h67l113 -139h-65z" />
    <glyph glyph-name="Udieresis" unicode="&#xdc;" horiz-adv-x="722" 
d="M82 271v449h68v-429q0 -133 50 -192.5t161 -59.5q114 0 162.5 61t48.5 191v429h68v-449q0 -141 -70.5 -215.5t-208.5 -74.5q-139 0 -209 75t-70 215zM255 786v102h65v-102h-65zM414 786v102h65v-102h-65z" />
    <glyph glyph-name="Yacute" unicode="&#xdd;" horiz-adv-x="611" 
d="M90 720l212 -347l217 347h79l-261 -406v-314h-68v309l-257 411h78zM299 776h-51l111 139h77z" />
    <glyph glyph-name="Thorn" unicode="&#xde;" horiz-adv-x="611" 
d="M146 0h-68v720h68v-150h195q235 0 235 -201q0 -47 -16 -83t-42.5 -57.5t-63.5 -35.5t-74 -19.5t-80 -5.5h-154v-168zM146 226h156q104 0 155 31t51 117q0 138 -186 138h-176v-286z" />
    <glyph glyph-name="germandbls" unicode="&#xdf;" horiz-adv-x="500" 
d="M211 375v50q157 4 157 124q0 60 -31 95.5t-95 35.5q-81 0 -105.5 -35.5t-24.5 -111.5v-533h-60v544q0 190 187 190q87 0 140 -50t53 -136q0 -84 -84 -145q54 -19 82.5 -69t28.5 -110q0 -115 -55.5 -176.5t-155.5 -61.5q-22 0 -37 5v53q77 -14 130.5 27.5t53.5 127.5
q0 94 -44 135t-140 41z" />
    <glyph glyph-name="agrave" unicode="&#xe0;" 
d="M411 191v81q-51 -21 -155 -29q-146 -11 -146 -110q0 -45 33 -69t79 -24q78 0 133.5 38.5t55.5 112.5zM227 291l83 11q52 5 79 17q22 10 22 54q0 105 -129 105q-67 0 -105 -26.5t-46 -90.5h-61q6 87 64 129t149 42q86 0 137 -38t51 -123v-282q0 -36 12.5 -44.5t50.5 4.5
v-47q-30 -10 -47 -10q-13 0 -27 3q-46 7 -48 77q-77 -86 -193 -86q-73 0 -123 39t-50 110q0 132 181 156zM295 574l-138 139h78l111 -139h-51z" />
    <glyph glyph-name="aacute" unicode="&#xe1;" 
d="M411 191v81q-51 -21 -155 -29q-146 -11 -146 -110q0 -45 33 -69t79 -24q78 0 133.5 38.5t55.5 112.5zM227 291l83 11q52 5 79 17q22 10 22 54q0 105 -129 105q-67 0 -105 -26.5t-46 -90.5h-61q6 87 64 129t149 42q86 0 137 -38t51 -123v-282q0 -36 12.5 -44.5t50.5 4.5
v-47q-30 -10 -47 -10q-13 0 -27 3q-46 7 -48 77q-77 -86 -193 -86q-73 0 -123 39t-50 110q0 132 181 156zM272 574h-51l111 139h77z" />
    <glyph glyph-name="acircumflex" unicode="&#xe2;" 
d="M411 191v81q-51 -21 -155 -29q-146 -11 -146 -110q0 -45 33 -69t79 -24q78 0 133.5 38.5t55.5 112.5zM227 291l83 11q52 5 79 17q22 10 22 54q0 105 -129 105q-67 0 -105 -26.5t-46 -90.5h-61q6 87 64 129t149 42q86 0 137 -38t51 -123v-282q0 -36 12.5 -44.5t50.5 4.5
v-47q-30 -10 -47 -10q-13 0 -27 3q-46 7 -48 77q-77 -86 -193 -86q-73 0 -123 39t-50 110q0 132 181 156zM283 676l-82 -102h-65l114 139h67l113 -139h-65z" />
    <glyph glyph-name="atilde" unicode="&#xe3;" 
d="M411 191v81q-51 -21 -155 -29q-146 -11 -146 -110q0 -45 33 -69t79 -24q78 0 133.5 38.5t55.5 112.5zM227 291l83 11q52 5 79 17q22 10 22 54q0 105 -129 105q-67 0 -105 -26.5t-46 -90.5h-61q6 87 64 129t149 42q86 0 137 -38t51 -123v-282q0 -36 12.5 -44.5t50.5 4.5
v-47q-30 -10 -47 -10q-13 0 -27 3q-46 7 -48 77q-77 -86 -193 -86q-73 0 -123 39t-50 110q0 132 181 156zM164 586h-36q3 31 20 59q15 22 39 32t49 4q16 -3 60 -23t63 -20q34 0 44 50h38q-1 -9 -8 -38q-26 -60 -74 -60q-29 0 -76.5 22.5t-69.5 22.5q-20 0 -31 -13t-18 -36z
" />
    <glyph glyph-name="adieresis" unicode="&#xe4;" 
d="M411 191v81q-51 -21 -155 -29q-146 -11 -146 -110q0 -45 33 -69t79 -24q78 0 133.5 38.5t55.5 112.5zM227 291l83 11q52 5 79 17q22 10 22 54q0 105 -129 105q-67 0 -105 -26.5t-46 -90.5h-61q6 87 64 129t149 42q86 0 137 -38t51 -123v-282q0 -36 12.5 -44.5t50.5 4.5
v-47q-30 -10 -47 -10q-13 0 -27 3q-46 7 -48 77q-77 -86 -193 -86q-73 0 -123 39t-50 110q0 132 181 156zM172 584v102h65v-102h-65zM331 584v102h65v-102h-65z" />
    <glyph glyph-name="aring" unicode="&#xe5;" 
d="M411 191v81q-51 -21 -155 -29q-146 -11 -146 -110q0 -45 33 -69t79 -24q78 0 133.5 38.5t55.5 112.5zM227 291l83 11q52 5 79 17q22 10 22 54q0 105 -129 105q-67 0 -105 -26.5t-46 -90.5h-61q6 87 64 129t149 42q86 0 137 -38t51 -123v-282q0 -36 12.5 -44.5t50.5 4.5
v-47q-30 -10 -47 -10q-13 0 -27 3q-46 7 -48 77q-77 -86 -193 -86q-73 0 -123 39t-50 110q0 132 181 156zM279 578q-41 0 -70.5 29.5t-29.5 69.5t30 70t70 30t69.5 -30t29.5 -70q0 -41 -29 -70t-70 -29zM279 611q26 0 46 20t20 46q0 27 -19.5 47t-46.5 20t-47 -20t-20 -47
t20 -46.5t47 -19.5z" />
    <glyph glyph-name="ae" unicode="&#xe6;" horiz-adv-x="889" 
d="M393 204v70q-29 -15 -84 -23.5t-97.5 -13t-75.5 -28t-33 -68.5q0 -49 28.5 -75t79.5 -26q88 0 135 44.5t47 119.5zM457 295h326q0 78 -41.5 130.5t-116.5 52.5q-45 0 -79 -18t-52.5 -46.5t-27.5 -58.5t-9 -60zM219 295l57 6q75 8 96 20t21 44q0 65 -28 89t-98 24
q-130 0 -144 -114h-62q5 84 61 126t143 42q145 0 181 -85q32 48 75 66.5t106 18.5t107 -22t68 -62.5t34.5 -90t10.5 -112.5h-390q0 -91 42.5 -148t129.5 -57q58 0 97 31.5t54 88.5h63q-20 -84 -76 -129t-143 -45q-131 0 -200 114q-25 -34 -45.5 -54.5t-66.5 -40t-106 -19.5
q-74 0 -120.5 37t-46.5 109q0 69 45.5 111t134.5 52z" />
    <glyph glyph-name="ccedilla" unicode="&#xe7;" 
d="M500 355h-61q-34 123 -154 123q-86 0 -130 -65t-44 -155q0 -91 43.5 -154.5t130.5 -63.5q66 0 107 37t52 102h64q-16 -88 -71 -139.5t-147 -53.5l-36 -45q24 6 36 6q31 0 52.5 -16t24.5 -36q9 -50 -24 -76t-86 -26q-41 0 -91 19l15 30q45 -15 64 -15q25 0 45.5 12
t20.5 35q0 19 -14.5 29t-35.5 10q-14 0 -44 -8l-15 13l52 71q-103 9 -155 82.5t-52 186.5q0 114 63.5 194t174.5 80q188 0 215 -177z" />
    <glyph glyph-name="egrave" unicode="&#xe8;" 
d="M109 295h338q0 79 -43 131t-121 52q-75 0 -119.5 -52t-54.5 -131zM511 245h-402q-1 -88 45 -146.5t129 -58.5q59 0 101.5 31.5t55.5 87.5h67q-53 -173 -224 -173q-119 0 -178.5 74.5t-59.5 196.5q0 117 65 196t173 79t168.5 -74.5t59.5 -212.5zM295 574l-138 139h78
l111 -139h-51z" />
    <glyph glyph-name="eacute" unicode="&#xe9;" 
d="M109 295h338q0 79 -43 131t-121 52q-75 0 -119.5 -52t-54.5 -131zM511 245h-402q-1 -88 45 -146.5t129 -58.5q59 0 101.5 31.5t55.5 87.5h67q-53 -173 -224 -173q-119 0 -178.5 74.5t-59.5 196.5q0 117 65 196t173 79t168.5 -74.5t59.5 -212.5zM272 574h-51l111 139h77z
" />
    <glyph glyph-name="ecircumflex" unicode="&#xea;" 
d="M109 295h338q0 79 -43 131t-121 52q-75 0 -119.5 -52t-54.5 -131zM511 245h-402q-1 -88 45 -146.5t129 -58.5q59 0 101.5 31.5t55.5 87.5h67q-53 -173 -224 -173q-119 0 -178.5 74.5t-59.5 196.5q0 117 65 196t173 79t168.5 -74.5t59.5 -212.5zM283 676l-82 -102h-65
l114 139h67l113 -139h-65z" />
    <glyph glyph-name="edieresis" unicode="&#xeb;" 
d="M109 295h338q0 79 -43 131t-121 52q-75 0 -119.5 -52t-54.5 -131zM511 245h-402q-1 -88 45 -146.5t129 -58.5q59 0 101.5 31.5t55.5 87.5h67q-53 -173 -224 -173q-119 0 -178.5 74.5t-59.5 196.5q0 117 65 196t173 79t168.5 -74.5t59.5 -212.5zM172 584v102h65v-102h-65z
M331 584v102h65v-102h-65z" />
    <glyph glyph-name="igrave" unicode="&#xec;" horiz-adv-x="222" 
d="M138 0h-60v518h60v-518zM128 574l-138 139h78l111 -139h-51z" />
    <glyph glyph-name="iacute" unicode="&#xed;" horiz-adv-x="222" 
d="M138 0h-60v518h60v-518zM84 574h-51l111 139h77z" />
    <glyph glyph-name="icircumflex" unicode="&#xee;" horiz-adv-x="222" 
d="M138 0h-60v518h60v-518zM95 676l-82 -102h-65l114 139h67l113 -139h-65z" />
    <glyph glyph-name="idieresis" unicode="&#xef;" horiz-adv-x="222" 
d="M138 0h-60v518h60v-518zM-16 584v102h65v-102h-65zM143 584v102h65v-102h-65z" />
    <glyph glyph-name="eth" unicode="&#xf0;" 
d="M454 259q-1 99 -43.5 159t-132.5 60q-88 0 -132 -63t-44 -156q0 -99 46 -159t130 -60q88 0 132 63.5t44 155.5zM329 635l-61 -49l-38 24l65 52q-32 22 -80 44l41 33q45 -19 79 -45l55 45l37 -25l-59 -48q71 -67 110.5 -172t39.5 -235q0 -123 -65.5 -198t-174.5 -75
q-105 2 -172.5 72.5t-67.5 200.5q0 113 60 193t176 80q51 0 81 -9t65 -37q-35 99 -91 149z" />
    <glyph glyph-name="ntilde" unicode="&#xf1;" 
d="M132 279v-279h-60v518h60v-72q40 43 78.5 64.5t88.5 21.5q107 0 158 -74q26 -38 26 -119v-339h-60v338q0 71 -31.5 105.5t-102.5 34.5q-53 0 -91 -29t-53 -72q-13 -36 -13 -98zM164 586h-36q3 31 20 59q15 22 39 32t49 4q16 -3 60 -23t63 -20q34 0 44 50h38q-1 -9 -8 -38
q-26 -60 -74 -60q-29 0 -76.5 22.5t-69.5 22.5q-20 0 -31 -13t-18 -36z" />
    <glyph glyph-name="ograve" unicode="&#xf2;" 
d="M278 -14q-105 2 -172.5 72.5t-67.5 200.5q0 119 62.5 196t177.5 77q117 0 178.5 -76.5t61.5 -196.5q0 -123 -65.5 -198t-174.5 -75zM454 259q-1 99 -43.5 159t-132.5 60q-88 0 -132 -63t-44 -156q0 -99 46 -159t130 -60q88 0 132 63.5t44 155.5zM295 574l-138 139h78
l111 -139h-51z" />
    <glyph glyph-name="oacute" unicode="&#xf3;" 
d="M278 -14q-105 2 -172.5 72.5t-67.5 200.5q0 119 62.5 196t177.5 77q117 0 178.5 -76.5t61.5 -196.5q0 -123 -65.5 -198t-174.5 -75zM454 259q-1 99 -43.5 159t-132.5 60q-88 0 -132 -63t-44 -156q0 -99 46 -159t130 -60q88 0 132 63.5t44 155.5zM272 574h-51l111 139h77z
" />
    <glyph glyph-name="ocircumflex" unicode="&#xf4;" 
d="M278 -14q-105 2 -172.5 72.5t-67.5 200.5q0 119 62.5 196t177.5 77q117 0 178.5 -76.5t61.5 -196.5q0 -123 -65.5 -198t-174.5 -75zM454 259q-1 99 -43.5 159t-132.5 60q-88 0 -132 -63t-44 -156q0 -99 46 -159t130 -60q88 0 132 63.5t44 155.5zM283 676l-82 -102h-65
l114 139h67l113 -139h-65z" />
    <glyph glyph-name="otilde" unicode="&#xf5;" 
d="M278 -14q-105 2 -172.5 72.5t-67.5 200.5q0 119 62.5 196t177.5 77q117 0 178.5 -76.5t61.5 -196.5q0 -123 -65.5 -198t-174.5 -75zM454 259q-1 99 -43.5 159t-132.5 60q-88 0 -132 -63t-44 -156q0 -99 46 -159t130 -60q88 0 132 63.5t44 155.5zM164 586h-36q3 31 20 59
q15 22 39 32t49 4q16 -3 60 -23t63 -20q34 0 44 50h38q-1 -9 -8 -38q-26 -60 -74 -60q-29 0 -76.5 22.5t-69.5 22.5q-20 0 -31 -13t-18 -36z" />
    <glyph glyph-name="odieresis" unicode="&#xf6;" 
d="M278 -14q-105 2 -172.5 72.5t-67.5 200.5q0 119 62.5 196t177.5 77q117 0 178.5 -76.5t61.5 -196.5q0 -123 -65.5 -198t-174.5 -75zM454 259q-1 99 -43.5 159t-132.5 60q-88 0 -132 -63t-44 -156q0 -99 46 -159t130 -60q88 0 132 63.5t44 155.5zM172 584v102h65v-102h-65
zM331 584v102h65v-102h-65z" />
    <glyph glyph-name="divide" unicode="&#xf7;" horiz-adv-x="660" 
d="M80 220v60h500v-60h-500zM367 0h-73v88h73v-88zM367 412h-73v88h73v-88z" />
    <glyph glyph-name="oslash" unicode="&#xf8;" 
d="M135 124l260 309q-39 45 -115 45q-88 0 -132 -63.5t-44 -156.5q0 -85 31 -134zM425 397l-263 -312q45 -45 118 -45q88 0 132 63t44 155q0 89 -31 139zM125 41l-54 -64l-36 29l58 68q-53 70 -53 184q0 119 62.5 196.5t177.5 77.5q93 0 154 -53l52 62l35 -31l-55 -65
q54 -72 54 -187q0 -123 -63.5 -197.5t-176.5 -74.5q-96 0 -155 55z" />
    <glyph glyph-name="ugrave" unicode="&#xf9;" 
d="M423 236v282h60v-518h-60v72q-23 -26 -38.5 -40t-51 -30t-77.5 -16q-184 0 -184 191v341h60v-340q0 -138 133 -138q73 0 115.5 54.5t42.5 141.5zM295 574l-138 139h78l111 -139h-51z" />
    <glyph glyph-name="uacute" unicode="&#xfa;" 
d="M423 236v282h60v-518h-60v72q-23 -26 -38.5 -40t-51 -30t-77.5 -16q-184 0 -184 191v341h60v-340q0 -138 133 -138q73 0 115.5 54.5t42.5 141.5zM272 574h-51l111 139h77z" />
    <glyph glyph-name="ucircumflex" unicode="&#xfb;" 
d="M423 236v282h60v-518h-60v72q-23 -26 -38.5 -40t-51 -30t-77.5 -16q-184 0 -184 191v341h60v-340q0 -138 133 -138q73 0 115.5 54.5t42.5 141.5zM283 676l-82 -102h-65l114 139h67l113 -139h-65z" />
    <glyph glyph-name="udieresis" unicode="&#xfc;" 
d="M423 236v282h60v-518h-60v72q-23 -26 -38.5 -40t-51 -30t-77.5 -16q-184 0 -184 191v341h60v-340q0 -138 133 -138q73 0 115.5 54.5t42.5 141.5zM172 584v102h65v-102h-65zM331 584v102h65v-102h-65z" />
    <glyph glyph-name="yacute" unicode="&#xfd;" horiz-adv-x="500" 
d="M68 -197v56q32 -6 50 -6q31 0 49 23t33 67.5t19 52.5l-201 522h67l166 -445l166 445h65l-193 -511q-18 -48 -28 -73t-26.5 -56.5t-30.5 -46t-34.5 -25t-44.5 -10.5q-29 0 -57 7zM244 574h-51l111 139h77z" />
    <glyph glyph-name="thorn" unicode="&#xfe;" horiz-adv-x="611" 
d="M139 257q0 -91 48 -154t127 -63q89 0 135 66.5t42 168.5q-1 95 -50 149t-127 54q-82 0 -128.5 -62t-46.5 -159zM139 83v-287h-60v924h60v-293h2q25 49 76.5 77t103.5 28q119 0 176.5 -74.5t57.5 -197.5q0 -117 -59.5 -195.5t-171.5 -78.5q-56 0 -106.5 25.5t-78.5 71.5z
" />
    <glyph glyph-name="ydieresis" unicode="&#xff;" horiz-adv-x="500" 
d="M68 -197v56q32 -6 50 -6q31 0 49 23t33 67.5t19 52.5l-201 522h67l166 -445l166 445h65l-193 -511q-18 -48 -28 -73t-26.5 -56.5t-30.5 -46t-34.5 -25t-44.5 -10.5q-29 0 -57 7zM144 584v102h65v-102h-65zM303 584v102h65v-102h-65z" />
    <glyph glyph-name="dotlessi" unicode="&#x131;" horiz-adv-x="222" 
d="M138 0h-60v518h60v-518z" />
    <glyph glyph-name="Lslash" unicode="&#x141;" 
d="M535 0h-454v360l-81 -40v60l81 40v300h68v-250l81 40v-60l-81 -40v-352h386v-58z" />
    <glyph glyph-name="lslash" unicode="&#x142;" horiz-adv-x="222" 
d="M141 0h-60v340l-71 -40v60l71 40v320h60v-270l71 40v-60l-71 -40v-390z" />
    <glyph glyph-name="OE" unicode="&#x152;" horiz-adv-x="1000" 
d="M547 221v277q0 88 -53 135.5t-148 47.5q-114 0 -175.5 -81.5t-61.5 -238.5q0 -148 60.5 -235t184.5 -87q80 0 144 54q49 42 49 128zM550 0v72q-42 -43 -88.5 -67t-112.5 -24q-80 0 -140.5 31t-96.5 85t-53.5 120t-17.5 142q0 109 30.5 192t101 135.5t173.5 52.5
q70 0 121 -21t83 -74v76h407v-58h-342v-260h320v-58h-320v-286h352v-58h-417z" />
    <glyph glyph-name="oe" unicode="&#x153;" horiz-adv-x="944" 
d="M904 245h-393q-4 -41 10.5 -86t57.5 -82t107 -37q57 0 97.5 33t52.5 87h61q-18 -84 -74 -129t-139 -45q-71 0 -124 34.5t-81 91.5q-30 -62 -86 -94t-126 -32q-104 0 -167.5 74t-63.5 198q0 121 59 197.5t176 76.5q146 0 208 -125q65 125 205 125q65 0 110 -23t68 -65.5
t32.5 -90t9.5 -108.5zM100 249q-1 -90 44 -149.5t128 -59.5q84 0 129.5 62.5t45.5 166.5q0 94 -47 151.5t-134 57.5q-81 0 -125 -61.5t-41 -167.5zM511 295h329q0 83 -39.5 133t-119.5 50q-74 0 -120 -53t-50 -130z" />
    <glyph glyph-name="Scaron" unicode="&#x160;" horiz-adv-x="611" 
d="M43 215h66q15 -176 207 -176q91 0 137 42.5t46 106.5q0 45 -24 75t-63 44.5t-85.5 25.5t-93.5 24t-86 33t-63 59.5t-24 96.5q0 80 64.5 136.5t179.5 56.5q116 0 179.5 -61t62.5 -154h-65q0 78 -51 117.5t-126 39.5q-96 0 -141 -48.5t-35 -110.5q6 -37 34 -61.5t67 -37
t85 -22t90.5 -22t81 -33t59 -59.5t22.5 -96q0 -99 -69.5 -154.5t-193.5 -55.5q-117 0 -189 60.5t-72 173.5zM310 813l82 102h65l-113 -139h-67l-114 139h65z" />
    <glyph glyph-name="scaron" unicode="&#x161;" horiz-adv-x="500" 
d="M46 162h61q14 -66 50.5 -94t104.5 -28q62 0 95 28t33 68q0 41 -34 63t-83 31t-98 21t-83 44.5t-34 88.5q0 66 48.5 107t133.5 41q179 0 200 -163h-61q-15 109 -140 109q-56 0 -86.5 -24t-30.5 -65q0 -33 24.5 -54t61.5 -29.5t80 -20.5t80 -25.5t61.5 -44.5t24.5 -78
q0 -72 -58 -111.5t-153 -39.5q-89 0 -141 50t-56 126zM255 611l82 102h65l-113 -139h-67l-114 139h65z" />
    <glyph glyph-name="Ydieresis" unicode="&#x178;" horiz-adv-x="611" 
d="M90 720l212 -347l217 347h79l-261 -406v-314h-68v309l-257 411h78zM199 786v102h65v-102h-65zM358 786v102h65v-102h-65z" />
    <glyph glyph-name="Zcaron" unicode="&#x17d;" horiz-adv-x="611" 
d="M579 0h-548v57l461 605h-422v58h506v-57l-461 -605h464v-58zM310 813l82 102h65l-113 -139h-67l-114 139h65z" />
    <glyph glyph-name="zcaron" unicode="&#x17e;" horiz-adv-x="500" 
d="M467 0h-434v53l344 415h-321v50h398v-53l-344 -415h357v-50zM255 611l82 102h65l-113 -139h-67l-114 139h65z" />
    <glyph glyph-name="florin" unicode="&#x192;" 
d="M539 714l-20 -49q-16 9 -33 13q-21 4 -44 -1q-22 -4 -38 -19.5t-25.5 -42t-15.5 -51t-13 -60.5t-12 -56h115v-48h-123l-64 -336q-9 -47 -19 -82t-26 -70t-36.5 -57.5t-50 -36.5t-66.5 -14q-24 0 -55 11l19 57q22 -13 52 -13q54 0 84.5 86t67.5 293l29 162h-113v48h121
q3 11 11.5 49.5t13.5 56.5t16 52t23.5 51.5t31 38t44 29.5t56.5 9q35 0 70 -20z" />
    <glyph glyph-name="circumflex" unicode="&#x2c6;" horiz-adv-x="333" 
d="M171 676l-82 -102h-65l114 139h67l113 -139h-65z" />
    <glyph glyph-name="caron" unicode="&#x2c7;" horiz-adv-x="333" 
d="M171 611l82 102h65l-113 -139h-67l-114 139h65z" />
    <glyph glyph-name="uni02C9" unicode="&#x2c9;" horiz-adv-x="333" 
d="M23 612v45h296v-45h-296z" />
    <glyph glyph-name="breve" unicode="&#x2d8;" horiz-adv-x="333" 
d="M28 706h39q16 -81 105 -81q87 0 107 81h37q-7 -62 -46.5 -94t-102.5 -32q-60 0 -97.5 33.5t-41.5 92.5z" />
    <glyph glyph-name="dotaccent" unicode="&#x2d9;" horiz-adv-x="333" 
d="M134 584v102h65v-102h-65z" />
    <glyph glyph-name="ring" unicode="&#x2da;" horiz-adv-x="333" 
d="M167 578q-41 0 -70.5 29.5t-29.5 69.5t30 70t70 30t69.5 -30t29.5 -70q0 -41 -29 -70t-70 -29zM167 611q26 0 46 20t20 46q0 27 -19.5 47t-46.5 20t-47 -20t-20 -47t20 -46.5t47 -19.5z" />
    <glyph glyph-name="ogonek" unicode="&#x2db;" horiz-adv-x="333" 
d="M149 0h50v-2q-80 -40 -80 -87q0 -28 19.5 -42.5t47.5 -14.5q21 0 42 9v-44q-26 -9 -52 -9q-42 0 -72 23t-30 64q0 33 21.5 59.5t53.5 43.5z" />
    <glyph glyph-name="tilde" unicode="&#x2dc;" horiz-adv-x="333" 
d="M52 586h-36q3 31 20 59q15 22 39 32t49 4q16 -3 60 -23t63 -20q34 0 44 50h38q-1 -9 -8 -38q-26 -60 -74 -60q-29 0 -76.5 22.5t-69.5 22.5q-20 0 -31 -13t-18 -36z" />
    <glyph glyph-name="hungarumlaut" unicode="&#x2dd;" horiz-adv-x="333" 
d="M160 574h-51l111 139h77zM322 574h-51l111 139h77z" />
    <glyph glyph-name="uni03A9" unicode="&#x3a9;" horiz-adv-x="725" 
d="M207 48v3q-61 53 -100.5 134.5t-39.5 182.5q0 149 85.5 242.5t213.5 93.5t210 -97t82 -235q0 -105 -41.5 -189.5t-100.5 -131.5v-3h156v-48h-233v35q68 44 114.5 130t46.5 198q0 51 -15.5 101.5t-43.5 93.5t-74 70t-102 27q-108 0 -174 -84.5t-66 -209.5
q0 -106 47.5 -195.5t113.5 -130.5v-35h-233v48h154z" />
    <glyph glyph-name="uni03BC" unicode="&#x3bc;" 
d="M423 236v282h60v-518h-60v72q-23 -26 -38.5 -40t-51 -30t-77.5 -16q-72 0 -124 32v-222h-60v722h60v-340q0 -138 133 -138q73 0 115.5 54.5t42.5 141.5z" />
    <glyph glyph-name="pi" unicode="&#x3c0;" horiz-adv-x="561" 
d="M533 464h-84v-318q0 -99 15 -146h-56q-17 28 -17 139v325h-196q-5 -110 -27.5 -255t-48.5 -209h-57q28 74 49.5 212.5t26.5 251.5q-83 0 -117 -13l-10 38q45 25 137 25h391z" />
    <glyph glyph-name="uni2010" unicode="&#x2010;" horiz-adv-x="333" 
d="M40 291h253v-62h-253v62z" />
    <glyph glyph-name="endash" unicode="&#x2013;" horiz-adv-x="500" 
d="M500 282v-44h-500v44h500z" />
    <glyph glyph-name="emdash" unicode="&#x2014;" horiz-adv-x="1000" 
d="M1000 238h-1000v44h1000v-44z" />
    <glyph glyph-name="quoteleft" unicode="&#x2018;" horiz-adv-x="222" 
d="M69 495v118q0 84 73 107v-37q-34 -21 -34 -66v-34h34v-88h-73z" />
    <glyph glyph-name="quoteright" unicode="&#x2019;" horiz-adv-x="222" 
d="M153 720v-118q0 -84 -73 -107v37q34 21 34 66v34h-34v88h73z" />
    <glyph glyph-name="quotesinglbase" unicode="&#x201a;" horiz-adv-x="222" 
d="M153 88v-118q0 -84 -73 -107v37q34 21 34 66v34h-34v88h73z" />
    <glyph glyph-name="quotedblleft" unicode="&#x201c;" horiz-adv-x="389" 
d="M237 495v118q0 84 73 107v-37q-34 -21 -34 -66v-34h34v-88h-73zM86 495v118q0 84 73 107v-37q-34 -21 -34 -66v-34h34v-88h-73z" />
    <glyph glyph-name="quotedblright" unicode="&#x201d;" horiz-adv-x="389" 
d="M303 720v-118q0 -84 -73 -107v37q34 21 34 66v34h-34v88h73zM152 720v-118q0 -84 -73 -107v37q34 21 34 66v34h-34v88h73z" />
    <glyph glyph-name="quotedblbase" unicode="&#x201e;" horiz-adv-x="389" 
d="M303 88v-118q0 -84 -73 -107v37q34 21 34 66v34h-34v88h73zM152 88v-118q0 -84 -73 -107v37q34 21 34 66v34h-34v88h73z" />
    <glyph glyph-name="dagger" unicode="&#x2020;" 
d="M248 -166v602h-211v54h211v230h60v-230h211v-54h-211v-602h-60z" />
    <glyph glyph-name="daggerdbl" unicode="&#x2021;" 
d="M248 109v334h-211v54h211v223h60v-223h211v-54h-211v-334h211v-54h-211v-221h-60v221h-211v54h211z" />
    <glyph glyph-name="bullet" unicode="&#x2022;" horiz-adv-x="500" 
d="M430 359q0 -74 -53 -126.5t-128 -52.5q-73 0 -126 53t-53 126q0 75 52.5 128t126.5 53q75 0 128 -53t53 -128z" />
    <glyph glyph-name="ellipsis" unicode="&#x2026;" horiz-adv-x="1000" 
d="M204 0h-73v88h73v-88zM537 0h-73v88h73v-88zM870 0h-73v88h73v-88z" />
    <glyph glyph-name="perthousand" unicode="&#x2030;" horiz-adv-x="1000" 
d="M836 299q61 0 105 -44.5t44 -105.5t-43.5 -105t-105.5 -44t-106 44t-44 105t44.5 105.5t105.5 44.5zM836 57q36 0 64 28t28 64q0 37 -27.5 65t-64.5 28q-38 0 -65.5 -28t-27.5 -65t28 -64.5t65 -27.5zM163 698q61 0 105.5 -44t44.5 -105q0 -62 -44 -106t-106 -44
q-61 0 -105 44.5t-44 105.5t44 105t105 44zM163 641q-37 0 -64.5 -27.5t-27.5 -64.5t27.5 -65t64.5 -28t65 28t28 65q1 36 -27.5 64t-65.5 28zM473 299q61 0 105.5 -44.5t44.5 -105.5q0 -62 -44 -105.5t-106 -43.5q-61 0 -105 44t-44 105t44 105.5t105 44.5zM473 57
q36 0 64.5 28t28.5 64q0 37 -28 65t-65 28t-64.5 -28t-27.5 -65t28 -64.5t64 -27.5zM139 -14h-53l407 719h53z" />
    <glyph glyph-name="guilsinglleft" unicode="&#x2039;" horiz-adv-x="389" 
d="M121 228v63l146 113v-63l-104 -82l104 -80v-62z" />
    <glyph glyph-name="guilsinglright" unicode="&#x203a;" horiz-adv-x="389" 
d="M268 293v-63l-146 -113v63l104 82l-104 80v62z" />
    <glyph glyph-name="fraction" unicode="&#x2044;" horiz-adv-x="167" 
d="M-113 -14h-51l444 719h51z" />
    <glyph glyph-name="Euro" unicode="&#x20ac;" 
d="M19 236l20 54h61q-2 36 -2 55q0 29 1 43h-78l19 54h64q17 139 81.5 201t155.5 62q143 0 194 -116l-28 -76q-17 71 -61.5 104.5t-104.5 33.5q-75 0 -117.5 -56t-55.5 -153h311l-20 -54h-296q0 -7 -0.5 -21t-0.5 -21q0 -20 2 -56h259l-20 -54h-233q31 -196 171 -196
q100 0 167 109v-84q-28 -36 -72 -57.5t-95 -21.5q-89 0 -152.5 59t-83.5 191h-86z" />
    <glyph glyph-name="uni2113" unicode="&#x2113;" horiz-adv-x="475" 
d="M420 136l30 -24q-64 -121 -179 -121q-80 0 -119.5 53.5t-41.5 136.5v13q-16 -12 -59 -49l-20 36q70 60 79 69v279q0 125 42.5 179t102.5 54q58 0 88.5 -44t30.5 -112q0 -166 -210 -371v-30q1 -86 34 -127t83 -41q45 0 81.5 29.5t57.5 69.5zM164 535v-241q79 85 123 160
t44 149q0 115 -77 115q-35 0 -62.5 -45t-27.5 -138z" />
    <glyph glyph-name="trademark" unicode="&#x2122;" horiz-adv-x="940" 
d="M859 720v-421h-52v377h-2l-145 -377h-34l-145 377h-2v-377h-52v421h96l120 -311h2l118 311h96zM349 720v-40h-134v-381h-52v381h-134v40h320z" />
    <glyph glyph-name="Omega" unicode="&#x2126;" horiz-adv-x="725" 
d="M207 48v3q-61 53 -100.5 134.5t-39.5 182.5q0 149 85.5 242.5t213.5 93.5t210 -97t82 -235q0 -105 -41.5 -189.5t-100.5 -131.5v-3h156v-48h-233v35q68 44 114.5 130t46.5 198q0 51 -15.5 101.5t-43.5 93.5t-74 70t-102 27q-108 0 -174 -84.5t-66 -209.5
q0 -106 47.5 -195.5t113.5 -130.5v-35h-233v48h154z" />
    <glyph glyph-name="estimated" unicode="&#x212e;" horiz-adv-x="867" 
d="M832 335h-646q-6 0 -6 -4v-196q0 -9 9 -22q103 -106 244 -106q154 0 258 119h57q-54 -64 -137.5 -101.5t-178.5 -37.5q-165 0 -281.5 105t-116.5 253q0 149 116.5 254.5t281.5 105.5q166 0 283 -105.5t117 -254.5v-10zM686 361v197q0 13 -10 23q-104 102 -243 102
q-140 0 -243 -105q-10 -10 -10 -25v-192q0 -6 6 -6h495q5 0 5 6z" />
    <glyph glyph-name="partialdiff" unicode="&#x2202;" horiz-adv-x="537" 
d="M101 678l-22 41q69 54 161 54q101 0 173 -96.5t72 -277.5q0 -178 -66 -293.5t-188 -115.5q-90 0 -138.5 67t-48.5 160q0 112 62.5 181.5t148.5 69.5q63 0 109 -33.5t63 -67.5h1q1 13 1 47q0 139 -57 225t-137 86q-74 0 -134 -47zM235 38h2q73 0 122 76.5t61 189.5
q-15 43 -58 80t-99 37q-66 0 -114 -59.5t-48 -142.5q0 -80 37 -130.5t97 -50.5z" />
    <glyph glyph-name="Delta" unicode="&#x2206;" horiz-adv-x="646" 
d="M33 0v43l258 669h65l257 -668v-44h-580zM90 47h461l-158 410q-7 21 -35 91t-35 96h-4q-6 -21 -30.5 -86t-31.5 -85z" />
    <glyph glyph-name="product" unicode="&#x220f;" horiz-adv-x="692" 
d="M665 640h-113v-736h-56v736h-301v-736h-56v736h-113v52h639v-52z" />
    <glyph glyph-name="summation" unicode="&#x2211;" horiz-adv-x="552" 
d="M528 -96h-505v39l278 354l-266 355v40h478v-50h-396v-3l250 -335l-269 -342v-3h430v-55z" />
    <glyph glyph-name="minus" unicode="&#x2212;" horiz-adv-x="660" 
d="M80 220v60h500v-60h-500z" />
    <glyph glyph-name="uni2215" unicode="&#x2215;" horiz-adv-x="167" 
d="M-113 -14h-51l444 719h51z" />
    <glyph glyph-name="uni2219" unicode="&#x2219;" horiz-adv-x="278" 
d="M139 398q19 0 33.5 -14t14.5 -34t-14 -34.5t-34 -14.5t-34.5 14.5t-14.5 34.5q0 19 15 33.5t34 14.5z" />
    <glyph glyph-name="radical" unicode="&#x221a;" horiz-adv-x="564" 
d="M562 820l-222 -971h-54l-163 468l-75 -27l-13 36l124 49l136 -388q14 -53 17 -68h1l12 66l192 835h45z" />
    <glyph glyph-name="infinity" unicode="&#x221e;" horiz-adv-x="774" 
d="M722 289v-1q0 -68 -44 -111t-105 -43q-45 0 -85.5 28t-99.5 93q-35 -39 -56 -60t-58.5 -41t-75.5 -20q-60 0 -103 43.5t-43 106.5q0 66 43.5 110t109.5 44q35 0 71 -19.5t59 -42t57 -60.5q31 34 43 46.5t39 35.5t52 31.5t54 8.5q65 0 103.5 -41.5t38.5 -107.5zM204 173h1
q19 0 37 6t37 21t29.5 24.5t31.5 31.5t26 27q-57 66 -84 87q-41 30 -85 30q-47 0 -75 -34.5t-27 -82.5q0 -46 30.5 -78t78.5 -32zM576 400h-1q-24 0 -51 -14.5t-41 -26.5t-41 -41t-29 -31q59 -63 92.5 -88.5t71.5 -25.5q46 0 74.5 34t28.5 78q0 54 -29 84.5t-75 30.5z" />
    <glyph glyph-name="integral" unicode="&#x222b;" horiz-adv-x="344" 
d="M329 828l-12 -40q-15 11 -37 11q-32 0 -51 -23q-36 -40 -36 -181q0 -76 6.5 -251.5t6.5 -254.5q0 -137 -45 -200q-31 -45 -89 -45q-34 0 -61 17l12 42q26 -13 46 -13q28 0 47 24q37 46 37 177q0 79 -6.5 256.5t-6.5 253.5q0 154 51 205q34 37 86 37q31 0 52 -15z" />
    <glyph glyph-name="approxequal" unicode="&#x2248;" horiz-adv-x="568" 
d="M492 421l26 -22q-48 -92 -126 -92q-20 0 -40.5 6t-34 13t-44.5 24q-64 34 -96 34q-33 0 -55.5 -19.5t-46.5 -55.5l-27 21q50 93 135 93q17 0 35.5 -5.5t28.5 -10t28.5 -15t21.5 -12.5q4 -2 19.5 -10t20.5 -10t16.5 -6.5t21 -6t20.5 -1.5q31 0 53 18t44 57zM492 256
l26 -22q-48 -91 -126 -91q-20 0 -40.5 6t-34 13t-44.5 24q-64 34 -96 34q-55 0 -102 -76l-27 21q49 93 135 93q17 0 35.5 -5t29 -10t28 -14.5t21.5 -11.5q54 -30 81 -34q8 -1 17 -1q30 0 52 17.5t45 56.5z" />
    <glyph glyph-name="notequal" unicode="&#x2260;" horiz-adv-x="568" 
d="M398 498l-47 -101h164v-40h-181l-70 -150h251v-40h-268l-56 -120l-32 16l48 104h-155v40h173l70 150h-243v40h259l55 117z" />
    <glyph glyph-name="lessequal" unicode="&#x2264;" horiz-adv-x="568" 
d="M512 94l-454 225v41l454 226v-49l-409 -195v-2l409 -198v-48zM515 10h-463v42h463v-42z" />
    <glyph glyph-name="greaterequal" unicode="&#x2265;" horiz-adv-x="568" 
d="M58 586l455 -226v-41l-455 -225v48l409 196v3l-409 196v49zM514 10h-461v42h461v-42z" />
    <glyph glyph-name="lozenge" unicode="&#x25ca;" horiz-adv-x="565" 
d="M508 346l-203 -390h-47l-202 390l203 391h47zM454 344l-153 293q-12 28 -19 50h-2q-5 -18 -19 -50l-152 -290l154 -294q13 -29 18 -49h3q7 27 18 48z" />
    <glyph glyph-name="fi" unicode="&#xfb01;" horiz-adv-x="500" 
d="M92 468h-79v50h79v82q0 134 110 134q29 0 50 -4v-55q-20 5 -36 5q-22 0 -36 -8t-19.5 -24.5t-7 -29.5t-1.5 -36v-64h98v-50h-98v-468h-60v468zM432 0h-60v518h60v-518zM435 720v-89h-66v89h66z" />
    <glyph glyph-name="fl" unicode="&#xfb02;" horiz-adv-x="500" 
d="M92 468h-79v50h79v82q0 134 110 134q29 0 50 -4v-55q-20 5 -36 5q-22 0 -36 -8t-19.5 -24.5t-7 -29.5t-1.5 -36v-64h98v-50h-98v-468h-60v468zM432 0h-60v720h60v-720z" />
    <glyph glyph-name="a.superior" horiz-adv-x="334" 
d="M245 534v49q-30 -12 -101 -18q-97 -7 -97 -66q0 -27 22.5 -42.5t52.5 -15.5q51 0 87 24t36 69zM125 594l54 7q36 3 52 10q14 5 14 32q0 30 -20.5 48t-63.5 18q-89 0 -98 -73h-40q4 52 42 77.5t97 25.5q122 0 122 -97v-169q0 -21 8 -26.5t33 2.5v-28q-23 -8 -48 -5
q-30 5 -32 47q-49 -52 -125 -52q-47 0 -79.5 23t-32.5 66q0 79 117 94z" />
    <glyph glyph-name="o.superior" horiz-adv-x="334" 
d="M167 411q-68 2 -112 44t-44 120q0 72 40.5 118t115.5 46q76 0 116 -46t40 -118q0 -74 -43 -119t-113 -45zM50 575q0 -59 31 -96.5t86 -37.5q57 0 87 39.5t30 94.5q0 59 -29 96.5t-88 37.5q-58 0 -87.5 -39.5t-29.5 -94.5z" />
    <glyph glyph-name="one.superior" horiz-adv-x="333" 
d="M205 316v314h-118v26q31 2 48 4.5t35.5 11t28.5 24.5t15 43h33v-423h-42z" />
    <glyph glyph-name="two.superior" horiz-adv-x="333" 
d="M72 600h-44q0 63 40.5 101t108.5 38q67 0 104 -33t37 -84q0 -39 -23 -70.5t-50 -47t-68 -37t-58 -33.5q-58 -40 -60 -86h255v-32h-299q0 66 35 103q31 33 74.5 60t74 41.5t52.5 40t22 59.5q0 40 -29 63.5t-72 23.5q-44 0 -73 -31.5t-27 -75.5z" />
    <glyph glyph-name="three.superior" horiz-adv-x="333" 
d="M133 520v31q64 0 97.5 17.5t33.5 63.5q0 37 -27.5 56t-69.5 19q-44 0 -71.5 -25.5t-27.5 -65.5h-41q0 57 44 95q34 28 104 28q57 0 94 -27t37 -77q0 -68 -65 -95q81 -23 81 -104q0 -54 -39.5 -90.5t-108.5 -37.5q-81 0 -118.5 29t-44.5 101h42q0 -47 31 -72.5t83 -25.5
q49 0 82 29t31 66q-3 94 -147 85z" />
    <hkern u1="T" u2="&#x161;" k="28" />
    <hkern u1="T" u2="&#xfc;" k="46" />
    <hkern u1="T" u2="&#xf6;" k="56" />
    <hkern u1="T" u2="&#xf2;" k="56" />
    <hkern u1="T" u2="&#xeb;" k="56" />
    <hkern u1="T" u2="&#xea;" k="83" />
    <hkern u1="T" u2="&#xe8;" k="83" />
    <hkern u1="T" u2="&#xe5;" k="56" />
    <hkern u1="T" u2="&#xe4;" k="28" />
    <hkern u1="T" u2="&#xe3;" k="56" />
    <hkern u1="T" u2="&#xe2;" k="56" />
    <hkern u1="T" u2="&#xe0;" k="56" />
    <hkern u1="V" u2="&#xf6;" k="28" />
    <hkern u1="V" u2="&#xf4;" k="41" />
    <hkern u1="V" u2="&#xee;" k="-4" />
    <hkern u1="V" u2="&#xeb;" k="28" />
    <hkern u1="V" u2="&#xea;" k="28" />
    <hkern u1="V" u2="&#xe8;" k="28" />
    <hkern u1="V" u2="&#xe5;" k="28" />
    <hkern u1="V" u2="&#xe4;" k="28" />
    <hkern u1="V" u2="&#xe3;" k="28" />
    <hkern u1="V" u2="&#xe2;" k="28" />
    <hkern u1="V" u2="&#xe0;" k="28" />
    <hkern u1="W" u2="&#xfc;" k="14" />
    <hkern u1="W" u2="&#xf6;" k="14" />
    <hkern u1="W" u2="&#xea;" k="14" />
    <hkern u1="W" u2="&#xe4;" k="28" />
    <hkern u1="Y" u2="&#xfc;" k="28" />
    <hkern u1="Y" u2="&#xf6;" k="69" />
    <hkern u1="&#x2018;" u2="&#x2018;" k="18" />
    <hkern u1="&#x2019;" u2="&#x2019;" k="18" />
    <hkern g1="f"
	g2="quoteright"
	k="-18" />
    <hkern g1="f"
	g2="f,germandbls,fi,fl"
	k="18" />
    <hkern g1="F"
	g2="A,Agrave,Aacute,Acircumflex,Atilde,Adieresis,Aring,AE"
	k="55" />
    <hkern g1="F"
	g2="comma"
	k="129" />
    <hkern g1="F"
	g2="period"
	k="129" />
    <hkern g1="L,Lslash"
	g2="T"
	k="92" />
    <hkern g1="L,Lslash"
	g2="V"
	k="92" />
    <hkern g1="L,Lslash"
	g2="W"
	k="55" />
    <hkern g1="L,Lslash"
	g2="y,yacute,ydieresis"
	k="37" />
    <hkern g1="L,Lslash"
	g2="Y,Yacute,Ydieresis"
	k="111" />
    <hkern g1="L,Lslash"
	g2="quoteright"
	k="74" />
    <hkern g1="P"
	g2="A,Agrave,Aacute,Acircumflex,Atilde,Adieresis,Aring,AE"
	k="74" />
    <hkern g1="P"
	g2="comma"
	k="129" />
    <hkern g1="P"
	g2="period"
	k="129" />
    <hkern g1="r"
	g2="y,yacute,ydieresis"
	k="-18" />
    <hkern g1="r"
	g2="f,germandbls,fi,fl"
	k="-18" />
    <hkern g1="r"
	g2="comma"
	k="92" />
    <hkern g1="r"
	g2="period"
	k="92" />
    <hkern g1="r"
	g2="c,ccedilla"
	k="18" />
    <hkern g1="r"
	g2="d,dotlessi"
	k="18" />
    <hkern g1="r"
	g2="e,egrave,eacute,ecircumflex,edieresis"
	k="18" />
    <hkern g1="r"
	g2="m"
	k="-18" />
    <hkern g1="r"
	g2="n,ntilde"
	k="-18" />
    <hkern g1="r"
	g2="o,ograve,oacute,ocircumflex,otilde,odieresis,oslash,oe"
	k="18" />
    <hkern g1="r"
	g2="q"
	k="18" />
    <hkern g1="r"
	g2="t"
	k="-18" />
    <hkern g1="r"
	g2="hyphen"
	k="55" />
    <hkern g1="R"
	g2="T"
	k="18" />
    <hkern g1="R"
	g2="V"
	k="18" />
    <hkern g1="R"
	g2="W"
	k="18" />
    <hkern g1="R"
	g2="Y,Yacute,Ydieresis"
	k="37" />
    <hkern g1="T"
	g2="w"
	k="84" />
    <hkern g1="T"
	g2="y,yacute,ydieresis"
	k="84" />
    <hkern g1="T"
	g2="A,Agrave,Aacute,Acircumflex,Atilde,Adieresis,Aring,AE"
	k="92" />
    <hkern g1="T"
	g2="comma"
	k="111" />
    <hkern g1="T"
	g2="period"
	k="111" />
    <hkern g1="T"
	g2="c,ccedilla"
	k="111" />
    <hkern g1="T"
	g2="e,egrave,eacute,ecircumflex,edieresis"
	k="111" />
    <hkern g1="T"
	g2="o,ograve,oacute,ocircumflex,otilde,odieresis,oslash,oe"
	k="111" />
    <hkern g1="T"
	g2="hyphen"
	k="129" />
    <hkern g1="T"
	g2="a,agrave,aacute,acircumflex,atilde,adieresis,aring,ae"
	k="111" />
    <hkern g1="T"
	g2="r"
	k="92" />
    <hkern g1="T"
	g2="s,scaron"
	k="111" />
    <hkern g1="T"
	g2="u,ugrave,uacute,ucircumflex,udieresis"
	k="92" />
    <hkern g1="T"
	g2="colon"
	k="111" />
    <hkern g1="T"
	g2="semicolon"
	k="111" />
    <hkern g1="v"
	g2="comma"
	k="74" />
    <hkern g1="v"
	g2="period"
	k="74" />
    <hkern g1="V"
	g2="y,yacute,ydieresis"
	k="18" />
    <hkern g1="V"
	g2="A,Agrave,Aacute,Acircumflex,Atilde,Adieresis,Aring,AE"
	k="74" />
    <hkern g1="V"
	g2="comma"
	k="129" />
    <hkern g1="V"
	g2="period"
	k="129" />
    <hkern g1="V"
	g2="e,egrave,eacute,ecircumflex,edieresis"
	k="55" />
    <hkern g1="V"
	g2="o,ograve,oacute,ocircumflex,otilde,odieresis,oslash,oe"
	k="55" />
    <hkern g1="V"
	g2="hyphen"
	k="55" />
    <hkern g1="V"
	g2="a,agrave,aacute,acircumflex,atilde,adieresis,aring,ae"
	k="55" />
    <hkern g1="V"
	g2="r"
	k="37" />
    <hkern g1="V"
	g2="u,ugrave,uacute,ucircumflex,udieresis"
	k="37" />
    <hkern g1="V"
	g2="colon"
	k="74" />
    <hkern g1="V"
	g2="semicolon"
	k="74" />
    <hkern g1="V"
	g2="i,igrave,iacute,icircumflex,idieresis"
	k="18" />
    <hkern g1="w"
	g2="comma"
	k="55" />
    <hkern g1="w"
	g2="period"
	k="55" />
    <hkern g1="W"
	g2="A,Agrave,Aacute,Acircumflex,Atilde,Adieresis,Aring,AE"
	k="37" />
    <hkern g1="W"
	g2="comma"
	k="74" />
    <hkern g1="W"
	g2="period"
	k="74" />
    <hkern g1="W"
	g2="e,egrave,eacute,ecircumflex,edieresis"
	k="18" />
    <hkern g1="W"
	g2="o,ograve,oacute,ocircumflex,otilde,odieresis,oslash,oe"
	k="18" />
    <hkern g1="W"
	g2="a,agrave,aacute,acircumflex,atilde,adieresis,aring,ae"
	k="37" />
    <hkern g1="W"
	g2="r"
	k="18" />
    <hkern g1="W"
	g2="u,ugrave,uacute,ucircumflex,udieresis"
	k="18" />
    <hkern g1="W"
	g2="colon"
	k="18" />
    <hkern g1="W"
	g2="semicolon"
	k="18" />
    <hkern g1="y,yacute,ydieresis"
	g2="comma"
	k="92" />
    <hkern g1="y,yacute,ydieresis"
	g2="period"
	k="92" />
    <hkern g1="Y,Yacute,Ydieresis"
	g2="v"
	k="40" />
    <hkern g1="Y,Yacute,Ydieresis"
	g2="A,Agrave,Aacute,Acircumflex,Atilde,Adieresis,Aring,AE"
	k="74" />
    <hkern g1="Y,Yacute,Ydieresis"
	g2="comma"
	k="111" />
    <hkern g1="Y,Yacute,Ydieresis"
	g2="period"
	k="111" />
    <hkern g1="Y,Yacute,Ydieresis"
	g2="e,egrave,eacute,ecircumflex,edieresis"
	k="92" />
    <hkern g1="Y,Yacute,Ydieresis"
	g2="o,ograve,oacute,ocircumflex,otilde,odieresis,oslash,oe"
	k="92" />
    <hkern g1="Y,Yacute,Ydieresis"
	g2="q"
	k="92" />
    <hkern g1="Y,Yacute,Ydieresis"
	g2="hyphen"
	k="111" />
    <hkern g1="Y,Yacute,Ydieresis"
	g2="a,agrave,aacute,acircumflex,atilde,adieresis,aring,ae"
	k="92" />
    <hkern g1="Y,Yacute,Ydieresis"
	g2="u,ugrave,uacute,ucircumflex,udieresis"
	k="37" />
    <hkern g1="Y,Yacute,Ydieresis"
	g2="colon"
	k="92" />
    <hkern g1="Y,Yacute,Ydieresis"
	g2="semicolon"
	k="92" />
    <hkern g1="Y,Yacute,Ydieresis"
	g2="i,igrave,iacute,icircumflex,idieresis"
	k="20" />
    <hkern g1="Y,Yacute,Ydieresis"
	g2="p"
	k="37" />
    <hkern g1="quoteright"
	g2="t"
	k="18" />
    <hkern g1="quoteright"
	g2="s,scaron"
	k="74" />
  </font>
</defs></svg>
