Log transbank 2019-01-24
-----------------: --------------------------------------------------------------------
Iniciamos Transaccion: 
initTransactionRequest: Array
(
    [wSTransactionType] => TR_NORMAL_WS
    [commerceId] => 
    [buyOrder] => OC_20190124122041
    [sessionId] => OC_20190124122041
    [returnURL] => https://forastero.life/tienda/webpay/tbk-normal.php?action=result
    [finalURL] => https://forastero.life/tienda/webpay/tbk-normal.php?action=end
    [transactionDetails] => wsTransactionDetail Object
        (
            [sharesAmount] => 
            [sharesNumber] => 
            [amount] => 719900
            [commerceCode] => 597032380212
            [buyOrder] => OC_20190124122041
        )

    [wPMDetail] => 
)

initTransactionResponse: Array
(
    [return] => wsInitTransactionOutput Object
        (
            [token] => ebbbc733ceac232c16c3800d30c4dfc52d17f7d1a7c2a7c0ca858a4694c9f8cb
            [url] => https://webpay3g.transbank.cl:443/webpayserver/initTransaction
        )

)

     Response Mensaje: Sesion iniciada con exito en Webpay
initTransactionRequest: Array
(
    [tokenInput] => ebbbc733ceac232c16c3800d30c4dfc52d17f7d1a7c2a7c0ca858a4694c9f8cb
)

getTransactionResponse: Array
(
    [return] => transactionResultOutput Object
        (
            [accountingDate] => 0124
            [buyOrder] => OC_20190124122041
            [cardDetail] => cardDetail Object
                (
                    [cardNumber] => 1840
                    [cardExpirationDate] => 
                )

            [detailOutput] => wsTransactionDetailOutput Object
                (
                    [authorizationCode] => 936563
                    [paymentTypeCode] => VN
                    [responseCode] => 0
                    [sharesNumber] => 0
                    [amount] => 719900
                    [commerceCode] => 597032380212
                    [buyOrder] => OC_20190124122041
                )

            [sessionId] => OC_20190124122041
            [transactionDate] => 2019-01-24T00:20:43.398-03:00
            [urlRedirection] => https://webpay3g.transbank.cl:443/webpayserver/voucher.cgi
            [VCI] => TSY
        )

)

EXITO TOTALES: TOTAL A PAGAR Y VALOR PAGADO SON IGUALES
acknowledgeTransaction Request: Array
(
    [tokenInput] => ebbbc733ceac232c16c3800d30c4dfc52d17f7d1a7c2a7c0ca858a4694c9f8cb
)

acknowledgeTransaction Response: Array
(
)

Resultado: 
     Exito: Pago ACEPTADO por webpay (se deben guardatos para mostrar voucher)
Transaccion exitosa: End
