Log transbank 2019-04-03
-----------------: --------------------------------------------------------------------
Iniciamos Transaccion: 
initTransactionRequest: Array
(
    [wSTransactionType] => TR_NORMAL_WS
    [commerceId] => 
    [buyOrder] => OC_20190403104544
    [sessionId] => OC_20190403104544
    [returnURL] => https://forastero.life/tienda/webpay/tbk-normal.php?action=result
    [finalURL] => https://forastero.life/tienda/webpay/tbk-normal.php?action=end
    [transactionDetails] => wsTransactionDetail Object
        (
            [sharesAmount] => 
            [sharesNumber] => 
            [amount] => 869800
            [commerceCode] => 597032380212
            [buyOrder] => OC_20190403104544
        )

    [wPMDetail] => 
)

initTransactionResponse: Array
(
    [return] => wsInitTransactionOutput Object
        (
            [token] => efbb707afb618f379ac48c90aa80bbf9b505d06f6f78fa0fb280281f65554093
            [url] => https://webpay3g.transbank.cl:443/webpayserver/initTransaction
        )

)

     Response Mensaje: Sesion iniciada con exito en Webpay
