Log transbank 2019-01-26
-----------------: --------------------------------------------------------------------
Iniciamos Transaccion: 
initTransactionRequest: Array
(
    [wSTransactionType] => TR_NORMAL_WS
    [commerceId] => 
    [buyOrder] => OC_20190126013836
    [sessionId] => OC_20190126013836
    [returnURL] => https://forastero.life/tienda/webpay/tbk-normal.php?action=result
    [finalURL] => https://forastero.life/tienda/webpay/tbk-normal.php?action=end
    [transactionDetails] => wsTransactionDetail Object
        (
            [sharesAmount] => 
            [sharesNumber] => 
            [amount] => 1635720
            [commerceCode] => 597032380212
            [buyOrder] => OC_20190126013836
        )

    [wPMDetail] => 
)

initTransactionResponse: Array
(
    [return] => wsInitTransactionOutput Object
        (
            [token] => efe033b3b20d708c55c5c0663937dcda50462a79d5833fda434074528d9b6e56
            [url] => https://webpay3g.transbank.cl:443/webpayserver/initTransaction
        )

)

     Response Mensaje: Sesion iniciada con exito en Webpay
