Log transbank 2019-03-06
-----------------: --------------------------------------------------------------------
Iniciamos Transaccion: 
initTransactionRequest: Array
(
    [wSTransactionType] => TR_NORMAL_WS
    [commerceId] => 
    [buyOrder] => OC_20190306115005
    [sessionId] => OC_20190306115005
    [returnURL] => https://forastero.life/tienda/webpay/tbk-normal.php?action=result
    [finalURL] => https://forastero.life/tienda/webpay/tbk-normal.php?action=end
    [transactionDetails] => wsTransactionDetail Object
        (
            [sharesAmount] => 
            [sharesNumber] => 
            [amount] => 109900
            [commerceCode] => 597032380212
            [buyOrder] => OC_20190306115005
        )

    [wPMDetail] => 
)

initTransactionResponse: Array
(
    [return] => wsInitTransactionOutput Object
        (
            [token] => e1119ddd4f4a0d96fd05d69ba27f4b27fe258fa9aae17dea2f49ee78939a7f61
            [url] => https://webpay3g.transbank.cl:443/webpayserver/initTransaction
        )

)

     Response Mensaje: Sesion iniciada con exito en Webpay
initTransactionRequest: Array
(
    [tokenInput] => e1119ddd4f4a0d96fd05d69ba27f4b27fe258fa9aae17dea2f49ee78939a7f61
)

getTransactionResponse: Array
(
    [return] => transactionResultOutput Object
        (
            [accountingDate] => 0306
            [buyOrder] => OC_20190306115005
            [cardDetail] => cardDetail Object
                (
                    [cardNumber] => 8898
                    [cardExpirationDate] => 
                )

            [detailOutput] => wsTransactionDetailOutput Object
                (
                    [authorizationCode] => 007840
                    [paymentTypeCode] => VD
                    [responseCode] => 0
                    [sharesNumber] => 0
                    [amount] => 109900
                    [commerceCode] => 597032380212
                    [buyOrder] => OC_20190306115005
                )

            [sessionId] => OC_20190306115005
            [transactionDate] => 2019-03-06T11:50:07.314-03:00
            [urlRedirection] => https://webpay3g.transbank.cl:443/webpayserver/voucher.cgi
            [VCI] => TSY
        )

)

EXITO TOTALES: TOTAL A PAGAR Y VALOR PAGADO SON IGUALES
acknowledgeTransaction Request: Array
(
    [tokenInput] => e1119ddd4f4a0d96fd05d69ba27f4b27fe258fa9aae17dea2f49ee78939a7f61
)

acknowledgeTransaction Response: Array
(
)

Resultado: 
     Exito: Pago ACEPTADO por webpay (se deben guardatos para mostrar voucher)
Transaccion exitosa: End
-----------------: --------------------------------------------------------------------
Iniciamos Transaccion: 
initTransactionRequest: Array
(
    [wSTransactionType] => TR_NORMAL_WS
    [commerceId] => 
    [buyOrder] => OC_20190306022612
    [sessionId] => OC_20190306022612
    [returnURL] => https://forastero.life/tienda/webpay/tbk-normal.php?action=result
    [finalURL] => https://forastero.life/tienda/webpay/tbk-normal.php?action=end
    [transactionDetails] => wsTransactionDetail Object
        (
            [sharesAmount] => 
            [sharesNumber] => 
            [amount] => 6
            [commerceCode] => 597032380212
            [buyOrder] => OC_20190306022612
        )

    [wPMDetail] => 
)

initTransactionResponse: Array
(
    [return] => wsInitTransactionOutput Object
        (
            [token] => e18db12a8e95aa86b645019da37193691e66951bfb2295729c0fe5050aa89078
            [url] => https://webpay3g.transbank.cl:443/webpayserver/initTransaction
        )

)

     Response Mensaje: Sesion iniciada con exito en Webpay
-----------------: --------------------------------------------------------------------
Iniciamos Transaccion: 
initTransactionRequest: Array
(
    [wSTransactionType] => TR_NORMAL_WS
    [commerceId] => 
    [buyOrder] => OC_20190306022852
    [sessionId] => OC_20190306022852
    [returnURL] => https://forastero.life/tienda/webpay/tbk-normal.php?action=result
    [finalURL] => https://forastero.life/tienda/webpay/tbk-normal.php?action=end
    [transactionDetails] => wsTransactionDetail Object
        (
            [sharesAmount] => 
            [sharesNumber] => 
            [amount] => 6
            [commerceCode] => 597032380212
            [buyOrder] => OC_20190306022852
        )

    [wPMDetail] => 
)

initTransactionResponse: Array
(
    [return] => wsInitTransactionOutput Object
        (
            [token] => ed516484ddd52fe9d9578f72f36a380b1543232c2b17c287fa4c788023e88973
            [url] => https://webpay3g.transbank.cl:443/webpayserver/initTransaction
        )

)

     Response Mensaje: Sesion iniciada con exito en Webpay
initTransactionRequest: Array
(
    [tokenInput] => ed516484ddd52fe9d9578f72f36a380b1543232c2b17c287fa4c788023e88973
)

getTransactionResponse: Array
(
    [return] => transactionResultOutput Object
        (
            [accountingDate] => 0306
            [buyOrder] => OC_20190306022852
            [cardDetail] => cardDetail Object
                (
                    [cardNumber] => 9330
                    [cardExpirationDate] => 
                )

            [detailOutput] => wsTransactionDetailOutput Object
                (
                    [authorizationCode] => 002273
                    [paymentTypeCode] => VD
                    [responseCode] => 0
                    [sharesNumber] => 0
                    [amount] => 6
                    [commerceCode] => 597032380212
                    [buyOrder] => OC_20190306022852
                )

            [sessionId] => OC_20190306022852
            [transactionDate] => 2019-03-06T14:28:53.915-03:00
            [urlRedirection] => https://webpay3g.transbank.cl:443/webpayserver/voucher.cgi
            [VCI] => TSY
        )

)

EXITO TOTALES: TOTAL A PAGAR Y VALOR PAGADO SON IGUALES
acknowledgeTransaction Request: Array
(
    [tokenInput] => ed516484ddd52fe9d9578f72f36a380b1543232c2b17c287fa4c788023e88973
)

acknowledgeTransaction Response: Array
(
)

Resultado: 
     Exito: Pago ACEPTADO por webpay (se deben guardatos para mostrar voucher)
Transaccion exitosa: End
-----------------: --------------------------------------------------------------------
Iniciamos Transaccion: 
initTransactionRequest: Array
(
    [wSTransactionType] => TR_NORMAL_WS
    [commerceId] => 
    [buyOrder] => OC_20190306030603
    [sessionId] => OC_20190306030603
    [returnURL] => https://forastero.life/tienda/webpay/tbk-normal.php?action=result
    [finalURL] => https://forastero.life/tienda/webpay/tbk-normal.php?action=end
    [transactionDetails] => wsTransactionDetail Object
        (
            [sharesAmount] => 
            [sharesNumber] => 
            [amount] => 6
            [commerceCode] => 597032380212
            [buyOrder] => OC_20190306030603
        )

    [wPMDetail] => 
)

initTransactionResponse: Array
(
    [return] => wsInitTransactionOutput Object
        (
            [token] => e14b3440c790331a3bb15dd2f7aad9de85bb106cea16f6cb451c385f72ccac0c
            [url] => https://webpay3g.transbank.cl:443/webpayserver/initTransaction
        )

)

     Response Mensaje: Sesion iniciada con exito en Webpay
initTransactionRequest: Array
(
    [tokenInput] => e14b3440c790331a3bb15dd2f7aad9de85bb106cea16f6cb451c385f72ccac0c
)

getTransactionResponse: Array
(
    [return] => transactionResultOutput Object
        (
            [accountingDate] => 0306
            [buyOrder] => OC_20190306030603
            [cardDetail] => cardDetail Object
                (
                    [cardNumber] => 9620
                    [cardExpirationDate] => 
                )

            [detailOutput] => wsTransactionDetailOutput Object
                (
                    [authorizationCode] => 233021
                    [paymentTypeCode] => VN
                    [responseCode] => 0
                    [sharesNumber] => 0
                    [amount] => 6
                    [commerceCode] => 597032380212
                    [buyOrder] => OC_20190306030603
                )

            [sessionId] => OC_20190306030603
            [transactionDate] => 2019-03-06T15:06:05.317-03:00
            [urlRedirection] => https://webpay3g.transbank.cl:443/webpayserver/voucher.cgi
            [VCI] => TSY
        )

)

EXITO TOTALES: TOTAL A PAGAR Y VALOR PAGADO SON IGUALES
acknowledgeTransaction Request: Array
(
    [tokenInput] => e14b3440c790331a3bb15dd2f7aad9de85bb106cea16f6cb451c385f72ccac0c
)

acknowledgeTransaction Response: Array
(
)

Resultado: 
     Exito: Pago ACEPTADO por webpay (se deben guardatos para mostrar voucher)
Transaccion exitosa: End
-----------------: --------------------------------------------------------------------
Iniciamos Transaccion: 
initTransactionRequest: Array
(
    [wSTransactionType] => TR_NORMAL_WS
    [commerceId] => 
    [buyOrder] => OC_20190306031614
    [sessionId] => OC_20190306031614
    [returnURL] => https://forastero.life/tienda/webpay/tbk-normal.php?action=result
    [finalURL] => https://forastero.life/tienda/webpay/tbk-normal.php?action=end
    [transactionDetails] => wsTransactionDetail Object
        (
            [sharesAmount] => 
            [sharesNumber] => 
            [amount] => 6
            [commerceCode] => 597032380212
            [buyOrder] => OC_20190306031614
        )

    [wPMDetail] => 
)

initTransactionResponse: Array
(
    [return] => wsInitTransactionOutput Object
        (
            [token] => e3453b829d28d923202bc7d37d3e316278b5e9b0fe51436023d85fa01eb8a808
            [url] => https://webpay3g.transbank.cl:443/webpayserver/initTransaction
        )

)

     Response Mensaje: Sesion iniciada con exito en Webpay
initTransactionRequest: Array
(
    [tokenInput] => e3453b829d28d923202bc7d37d3e316278b5e9b0fe51436023d85fa01eb8a808
)

getTransactionResponse: Array
(
    [return] => transactionResultOutput Object
        (
            [accountingDate] => 0306
            [buyOrder] => OC_20190306031614
            [cardDetail] => cardDetail Object
                (
                    [cardNumber] => 9620
                    [cardExpirationDate] => 
                )

            [detailOutput] => wsTransactionDetailOutput Object
                (
                    [authorizationCode] => 294931
                    [paymentTypeCode] => VN
                    [responseCode] => 0
                    [sharesNumber] => 0
                    [amount] => 6
                    [commerceCode] => 597032380212
                    [buyOrder] => OC_20190306031614
                )

            [sessionId] => OC_20190306031614
            [transactionDate] => 2019-03-06T15:16:16.034-03:00
            [urlRedirection] => https://webpay3g.transbank.cl:443/webpayserver/voucher.cgi
            [VCI] => TSY
        )

)

EXITO TOTALES: TOTAL A PAGAR Y VALOR PAGADO SON IGUALES
acknowledgeTransaction Request: Array
(
    [tokenInput] => e3453b829d28d923202bc7d37d3e316278b5e9b0fe51436023d85fa01eb8a808
)

acknowledgeTransaction Response: Array
(
)

Resultado: 
     Exito: Pago ACEPTADO por webpay (se deben guardatos para mostrar voucher)
Transaccion exitosa: End
-----------------: --------------------------------------------------------------------
Iniciamos Transaccion: 
initTransactionRequest: Array
(
    [wSTransactionType] => TR_NORMAL_WS
    [commerceId] => 
    [buyOrder] => OC_20190306032550
    [sessionId] => OC_20190306032550
    [returnURL] => https://forastero.life/tienda/webpay/tbk-normal.php?action=result
    [finalURL] => https://forastero.life/tienda/webpay/tbk-normal.php?action=end
    [transactionDetails] => wsTransactionDetail Object
        (
            [sharesAmount] => 
            [sharesNumber] => 
            [amount] => 18
            [commerceCode] => 597032380212
            [buyOrder] => OC_20190306032550
        )

    [wPMDetail] => 
)

initTransactionResponse: Array
(
    [return] => wsInitTransactionOutput Object
        (
            [token] => ed84500405f7be7adcb4686967319ca4066be851d70cf75627a27b45b7b432b3
            [url] => https://webpay3g.transbank.cl:443/webpayserver/initTransaction
        )

)

     Response Mensaje: Sesion iniciada con exito en Webpay
initTransactionRequest: Array
(
    [tokenInput] => ed84500405f7be7adcb4686967319ca4066be851d70cf75627a27b45b7b432b3
)

getTransactionResponse: Array
(
    [return] => transactionResultOutput Object
        (
            [accountingDate] => 0306
            [buyOrder] => OC_20190306032550
            [cardDetail] => cardDetail Object
                (
                    [cardNumber] => 9620
                    [cardExpirationDate] => 
                )

            [detailOutput] => wsTransactionDetailOutput Object
                (
                    [authorizationCode] => 706823
                    [paymentTypeCode] => VN
                    [responseCode] => 0
                    [sharesNumber] => 0
                    [amount] => 18
                    [commerceCode] => 597032380212
                    [buyOrder] => OC_20190306032550
                )

            [sessionId] => OC_20190306032550
            [transactionDate] => 2019-03-06T15:25:52.357-03:00
            [urlRedirection] => https://webpay3g.transbank.cl:443/webpayserver/voucher.cgi
            [VCI] => TSY
        )

)

EXITO TOTALES: TOTAL A PAGAR Y VALOR PAGADO SON IGUALES
acknowledgeTransaction Request: Array
(
    [tokenInput] => ed84500405f7be7adcb4686967319ca4066be851d70cf75627a27b45b7b432b3
)

acknowledgeTransaction Response: Array
(
)

Resultado: 
     Exito: Pago ACEPTADO por webpay (se deben guardatos para mostrar voucher)
Transaccion exitosa: End
-----------------: --------------------------------------------------------------------
Iniciamos Transaccion: 
initTransactionRequest: Array
(
    [wSTransactionType] => TR_NORMAL_WS
    [commerceId] => 
    [buyOrder] => OC_20190306034319
    [sessionId] => OC_20190306034319
    [returnURL] => https://forastero.life/tienda/webpay/tbk-normal.php?action=result
    [finalURL] => https://forastero.life/tienda/webpay/tbk-normal.php?action=end
    [transactionDetails] => wsTransactionDetail Object
        (
            [sharesAmount] => 
            [sharesNumber] => 
            [amount] => 24
            [commerceCode] => 597032380212
            [buyOrder] => OC_20190306034319
        )

    [wPMDetail] => 
)

initTransactionResponse: Array
(
    [return] => wsInitTransactionOutput Object
        (
            [token] => ed83a137f90b7fca8122ae0c082898a54ce40c038e7d45c5cbd5762fed549d15
            [url] => https://webpay3g.transbank.cl:443/webpayserver/initTransaction
        )

)

     Response Mensaje: Sesion iniciada con exito en Webpay
initTransactionRequest: Array
(
    [tokenInput] => ed83a137f90b7fca8122ae0c082898a54ce40c038e7d45c5cbd5762fed549d15
)

getTransactionResponse: Array
(
    [return] => transactionResultOutput Object
        (
            [accountingDate] => 0306
            [buyOrder] => OC_20190306034319
            [cardDetail] => cardDetail Object
                (
                    [cardNumber] => 5876
                    [cardExpirationDate] => 
                )

            [detailOutput] => wsTransactionDetailOutput Object
                (
                    [authorizationCode] => 009655
                    [paymentTypeCode] => VD
                    [responseCode] => 0
                    [sharesNumber] => 0
                    [amount] => 24
                    [commerceCode] => 597032380212
                    [buyOrder] => OC_20190306034319
                )

            [sessionId] => OC_20190306034319
            [transactionDate] => 2019-03-06T15:43:20.993-03:00
            [urlRedirection] => https://webpay3g.transbank.cl:443/webpayserver/voucher.cgi
            [VCI] => TSY
        )

)

EXITO TOTALES: TOTAL A PAGAR Y VALOR PAGADO SON IGUALES
acknowledgeTransaction Request: Array
(
    [tokenInput] => ed83a137f90b7fca8122ae0c082898a54ce40c038e7d45c5cbd5762fed549d15
)

acknowledgeTransaction Response: Array
(
)

Resultado: 
     Exito: Pago ACEPTADO por webpay (se deben guardatos para mostrar voucher)
Transaccion exitosa: End
-----------------: --------------------------------------------------------------------
Iniciamos Transaccion: 
initTransactionRequest: Array
(
    [wSTransactionType] => TR_NORMAL_WS
    [commerceId] => 
    [buyOrder] => OC_20190306034950
    [sessionId] => OC_20190306034950
    [returnURL] => https://forastero.life/tienda/webpay/tbk-normal.php?action=result
    [finalURL] => https://forastero.life/tienda/webpay/tbk-normal.php?action=end
    [transactionDetails] => wsTransactionDetail Object
        (
            [sharesAmount] => 
            [sharesNumber] => 
            [amount] => 54
            [commerceCode] => 597032380212
            [buyOrder] => OC_20190306034950
        )

    [wPMDetail] => 
)

initTransactionResponse: Array
(
    [return] => wsInitTransactionOutput Object
        (
            [token] => e3a4513be7b5263396a2184957901eece004331c26eb222906a4a3fb09c23e6a
            [url] => https://webpay3g.transbank.cl:443/webpayserver/initTransaction
        )

)

     Response Mensaje: Sesion iniciada con exito en Webpay
-----------------: --------------------------------------------------------------------
Iniciamos Transaccion: 
initTransactionRequest: Array
(
    [wSTransactionType] => TR_NORMAL_WS
    [commerceId] => 
    [buyOrder] => OC_20190306035120
    [sessionId] => OC_20190306035120
    [returnURL] => https://forastero.life/tienda/webpay/tbk-normal.php?action=result
    [finalURL] => https://forastero.life/tienda/webpay/tbk-normal.php?action=end
    [transactionDetails] => wsTransactionDetail Object
        (
            [sharesAmount] => 
            [sharesNumber] => 
            [amount] => 20024
            [commerceCode] => 597032380212
            [buyOrder] => OC_20190306035120
        )

    [wPMDetail] => 
)

initTransactionResponse: Array
(
    [return] => wsInitTransactionOutput Object
        (
            [token] => eca8fa9e938f828c021c87ed2fbf1c936f0ed2bfe6144a5c75817a44db29572b
            [url] => https://webpay3g.transbank.cl:443/webpayserver/initTransaction
        )

)

     Response Mensaje: Sesion iniciada con exito en Webpay
initTransactionRequest: Array
(
    [tokenInput] => e3a4513be7b5263396a2184957901eece004331c26eb222906a4a3fb09c23e6a
)

getTransactionResponse: Array
(
    [return] => transactionResultOutput Object
        (
            [accountingDate] => 0306
            [buyOrder] => OC_20190306034950
            [cardDetail] => cardDetail Object
                (
                    [cardNumber] => 0094
                    [cardExpirationDate] => 
                )

            [detailOutput] => wsTransactionDetailOutput Object
                (
                    [authorizationCode] => 049816
                    [paymentTypeCode] => VD
                    [responseCode] => 0
                    [sharesNumber] => 0
                    [amount] => 54
                    [commerceCode] => 597032380212
                    [buyOrder] => OC_20190306034950
                )

            [sessionId] => OC_20190306034950
            [transactionDate] => 2019-03-06T15:49:51.783-03:00
            [urlRedirection] => https://webpay3g.transbank.cl:443/webpayserver/voucher.cgi
            [VCI] => TSY
        )

)

EXITO TOTALES: TOTAL A PAGAR Y VALOR PAGADO SON IGUALES
acknowledgeTransaction Request: Array
(
    [tokenInput] => e3a4513be7b5263396a2184957901eece004331c26eb222906a4a3fb09c23e6a
)

acknowledgeTransaction Response: Array
(
)

Resultado: 
     Exito: Pago ACEPTADO por webpay (se deben guardatos para mostrar voucher)
Transaccion exitosa: End
-----------------: --------------------------------------------------------------------
Iniciamos Transaccion: 
initTransactionRequest: Array
(
    [wSTransactionType] => TR_NORMAL_WS
    [commerceId] => 
    [buyOrder] => OC_20190306035232
    [sessionId] => OC_20190306035232
    [returnURL] => https://forastero.life/tienda/webpay/tbk-normal.php?action=result
    [finalURL] => https://forastero.life/tienda/webpay/tbk-normal.php?action=end
    [transactionDetails] => wsTransactionDetail Object
        (
            [sharesAmount] => 
            [sharesNumber] => 
            [amount] => 20024
            [commerceCode] => 597032380212
            [buyOrder] => OC_20190306035232
        )

    [wPMDetail] => 
)

initTransactionResponse: Array
(
    [return] => wsInitTransactionOutput Object
        (
            [token] => e9b639ba902acd68efdf908a38045d796a67f7ec41b13f9645a23ff8fc7659dd
            [url] => https://webpay3g.transbank.cl:443/webpayserver/initTransaction
        )

)

     Response Mensaje: Sesion iniciada con exito en Webpay
-----------------: --------------------------------------------------------------------
Iniciamos Transaccion: 
initTransactionRequest: Array
(
    [wSTransactionType] => TR_NORMAL_WS
    [commerceId] => 
    [buyOrder] => OC_20190306035248
    [sessionId] => OC_20190306035248
    [returnURL] => https://forastero.life/tienda/webpay/tbk-normal.php?action=result
    [finalURL] => https://forastero.life/tienda/webpay/tbk-normal.php?action=end
    [transactionDetails] => wsTransactionDetail Object
        (
            [sharesAmount] => 
            [sharesNumber] => 
            [amount] => 20030
            [commerceCode] => 597032380212
            [buyOrder] => OC_20190306035248
        )

    [wPMDetail] => 
)

initTransactionResponse: Array
(
    [return] => wsInitTransactionOutput Object
        (
            [token] => ebbbb5038b58c6eb0f89577a730d41980cd952c8d4e895ae3c07b9683637a8b7
            [url] => https://webpay3g.transbank.cl:443/webpayserver/initTransaction
        )

)

     Response Mensaje: Sesion iniciada con exito en Webpay
-----------------: --------------------------------------------------------------------
Iniciamos Transaccion: 
initTransactionRequest: Array
(
    [wSTransactionType] => TR_NORMAL_WS
    [commerceId] => 
    [buyOrder] => OC_20190306035352
    [sessionId] => OC_20190306035352
    [returnURL] => https://forastero.life/tienda/webpay/tbk-normal.php?action=result
    [finalURL] => https://forastero.life/tienda/webpay/tbk-normal.php?action=end
    [transactionDetails] => wsTransactionDetail Object
        (
            [sharesAmount] => 
            [sharesNumber] => 
            [amount] => 42
            [commerceCode] => 597032380212
            [buyOrder] => OC_20190306035352
        )

    [wPMDetail] => 
)

initTransactionResponse: Array
(
    [return] => wsInitTransactionOutput Object
        (
            [token] => ea7685c16fe0b36f6878a0bba2a95fbc430f7dd05e76994dbc4c60ba39a280df
            [url] => https://webpay3g.transbank.cl:443/webpayserver/initTransaction
        )

)

     Response Mensaje: Sesion iniciada con exito en Webpay
initTransactionRequest: Array
(
    [tokenInput] => e9b639ba902acd68efdf908a38045d796a67f7ec41b13f9645a23ff8fc7659dd
)

getTransactionResponse: Array
(
    [return] => transactionResultOutput Object
        (
            [accountingDate] => 0306
            [buyOrder] => OC_20190306035232
            [cardDetail] => cardDetail Object
                (
                    [cardNumber] => 7563
                    [cardExpirationDate] => 
                )

            [detailOutput] => wsTransactionDetailOutput Object
                (
                    [authorizationCode] => 519497
                    [paymentTypeCode] => VN
                    [responseCode] => 0
                    [sharesNumber] => 0
                    [amount] => 20024
                    [commerceCode] => 597032380212
                    [buyOrder] => OC_20190306035232
                )

            [sessionId] => OC_20190306035232
            [transactionDate] => 2019-03-06T15:52:34.073-03:00
            [urlRedirection] => https://webpay3g.transbank.cl:443/webpayserver/voucher.cgi
            [VCI] => TSY
        )

)

EXITO TOTALES: TOTAL A PAGAR Y VALOR PAGADO SON IGUALES
acknowledgeTransaction Request: Array
(
    [tokenInput] => e9b639ba902acd68efdf908a38045d796a67f7ec41b13f9645a23ff8fc7659dd
)

acknowledgeTransaction Response: Array
(
)

Resultado: 
     Exito: Pago ACEPTADO por webpay (se deben guardatos para mostrar voucher)
initTransactionRequest: Array
(
    [tokenInput] => ea7685c16fe0b36f6878a0bba2a95fbc430f7dd05e76994dbc4c60ba39a280df
)

getTransactionResponse: Array
(
    [return] => transactionResultOutput Object
        (
            [accountingDate] => 0306
            [buyOrder] => OC_20190306035352
            [cardDetail] => cardDetail Object
                (
                    [cardNumber] => 9010
                    [cardExpirationDate] => 
                )

            [detailOutput] => wsTransactionDetailOutput Object
                (
                    [authorizationCode] => 085030
                    [paymentTypeCode] => VD
                    [responseCode] => 0
                    [sharesNumber] => 0
                    [amount] => 42
                    [commerceCode] => 597032380212
                    [buyOrder] => OC_20190306035352
                )

            [sessionId] => OC_20190306035352
            [transactionDate] => 2019-03-06T15:53:53.440-03:00
            [urlRedirection] => https://webpay3g.transbank.cl:443/webpayserver/voucher.cgi
            [VCI] => TSY
        )

)

EXITO TOTALES: TOTAL A PAGAR Y VALOR PAGADO SON IGUALES
acknowledgeTransaction Request: Array
(
    [tokenInput] => ea7685c16fe0b36f6878a0bba2a95fbc430f7dd05e76994dbc4c60ba39a280df
)

acknowledgeTransaction Response: Array
(
)

Resultado: 
     Exito: Pago ACEPTADO por webpay (se deben guardatos para mostrar voucher)
Transaccion exitosa: End
initTransactionRequest: Array
(
    [tokenInput] => ebbbb5038b58c6eb0f89577a730d41980cd952c8d4e895ae3c07b9683637a8b7
)

getTransactionResponse: Array
(
    [return] => transactionResultOutput Object
        (
            [accountingDate] => 0306
            [buyOrder] => OC_20190306035248
            [cardDetail] => cardDetail Object
                (
                    [cardNumber] => 9785
                    [cardExpirationDate] => 
                )

            [detailOutput] => wsTransactionDetailOutput Object
                (
                    [authorizationCode] => 238625
                    [paymentTypeCode] => VN
                    [responseCode] => 0
                    [sharesNumber] => 0
                    [amount] => 20030
                    [commerceCode] => 597032380212
                    [buyOrder] => OC_20190306035248
                )

            [sessionId] => OC_20190306035248
            [transactionDate] => 2019-03-06T15:52:49.769-03:00
            [urlRedirection] => https://webpay3g.transbank.cl:443/webpayserver/voucher.cgi
            [VCI] => TSY
        )

)

EXITO TOTALES: TOTAL A PAGAR Y VALOR PAGADO SON IGUALES
acknowledgeTransaction Request: Array
(
    [tokenInput] => ebbbb5038b58c6eb0f89577a730d41980cd952c8d4e895ae3c07b9683637a8b7
)

acknowledgeTransaction Response: Array
(
)

Resultado: 
     Exito: Pago ACEPTADO por webpay (se deben guardatos para mostrar voucher)
Transaccion exitosa: End
Transaccion exitosa: End
-----------------: --------------------------------------------------------------------
Iniciamos Transaccion: 
initTransactionRequest: Array
(
    [wSTransactionType] => TR_NORMAL_WS
    [commerceId] => 
    [buyOrder] => OC_20190306035936
    [sessionId] => OC_20190306035936
    [returnURL] => https://forastero.life/tienda/webpay/tbk-normal.php?action=result
    [finalURL] => https://forastero.life/tienda/webpay/tbk-normal.php?action=end
    [transactionDetails] => wsTransactionDetail Object
        (
            [sharesAmount] => 
            [sharesNumber] => 
            [amount] => 20024
            [commerceCode] => 597032380212
            [buyOrder] => OC_20190306035936
        )

    [wPMDetail] => 
)

initTransactionResponse: Array
(
    [return] => wsInitTransactionOutput Object
        (
            [token] => e3087bafe6ffd8a186d5bde25ca45452fff2e98dea04e44b5e08e7491df1abc7
            [url] => https://webpay3g.transbank.cl:443/webpayserver/initTransaction
        )

)

     Response Mensaje: Sesion iniciada con exito en Webpay
Transaccion Cancelada: End
-----------------: --------------------------------------------------------------------
Iniciamos Transaccion: 
initTransactionRequest: Array
(
    [wSTransactionType] => TR_NORMAL_WS
    [commerceId] => 
    [buyOrder] => OC_20190306040429
    [sessionId] => OC_20190306040429
    [returnURL] => https://forastero.life/tienda/webpay/tbk-normal.php?action=result
    [finalURL] => https://forastero.life/tienda/webpay/tbk-normal.php?action=end
    [transactionDetails] => wsTransactionDetail Object
        (
            [sharesAmount] => 
            [sharesNumber] => 
            [amount] => 20036
            [commerceCode] => 597032380212
            [buyOrder] => OC_20190306040429
        )

    [wPMDetail] => 
)

initTransactionResponse: Array
(
    [return] => wsInitTransactionOutput Object
        (
            [token] => e276a6e469736183f1e002671f3549ddacad58ac93dd3fecc375ebe1ce70dab4
            [url] => https://webpay3g.transbank.cl:443/webpayserver/initTransaction
        )

)

     Response Mensaje: Sesion iniciada con exito en Webpay
-----------------: --------------------------------------------------------------------
Iniciamos Transaccion: 
initTransactionRequest: Array
(
    [wSTransactionType] => TR_NORMAL_WS
    [commerceId] => 
    [buyOrder] => OC_20190306040452
    [sessionId] => OC_20190306040452
    [returnURL] => https://forastero.life/tienda/webpay/tbk-normal.php?action=result
    [finalURL] => https://forastero.life/tienda/webpay/tbk-normal.php?action=end
    [transactionDetails] => wsTransactionDetail Object
        (
            [sharesAmount] => 
            [sharesNumber] => 
            [amount] => 699800
            [commerceCode] => 597032380212
            [buyOrder] => OC_20190306040452
        )

    [wPMDetail] => 
)

initTransactionResponse: Array
(
    [return] => wsInitTransactionOutput Object
        (
            [token] => eb4de46abe94310cd1db477fccbcc5e8f9e965eb70fbc8ef7b1cd42e9f18fca0
            [url] => https://webpay3g.transbank.cl:443/webpayserver/initTransaction
        )

)

     Response Mensaje: Sesion iniciada con exito en Webpay
initTransactionRequest: Array
(
    [tokenInput] => e276a6e469736183f1e002671f3549ddacad58ac93dd3fecc375ebe1ce70dab4
)

getTransactionResponse: Array
(
    [return] => transactionResultOutput Object
        (
            [accountingDate] => 0306
            [buyOrder] => OC_20190306040429
            [cardDetail] => cardDetail Object
                (
                    [cardNumber] => 5038
                    [cardExpirationDate] => 
                )

            [detailOutput] => wsTransactionDetailOutput Object
                (
                    [authorizationCode] => 006143
                    [paymentTypeCode] => VD
                    [responseCode] => 0
                    [sharesNumber] => 0
                    [amount] => 20036
                    [commerceCode] => 597032380212
                    [buyOrder] => OC_20190306040429
                )

            [sessionId] => OC_20190306040429
            [transactionDate] => 2019-03-06T16:04:31.422-03:00
            [urlRedirection] => https://webpay3g.transbank.cl:443/webpayserver/voucher.cgi
            [VCI] => TSY
        )

)

EXITO TOTALES: TOTAL A PAGAR Y VALOR PAGADO SON IGUALES
acknowledgeTransaction Request: Array
(
    [tokenInput] => e276a6e469736183f1e002671f3549ddacad58ac93dd3fecc375ebe1ce70dab4
)

acknowledgeTransaction Response: Array
(
)

Resultado: 
     Exito: Pago ACEPTADO por webpay (se deben guardatos para mostrar voucher)
-----------------: --------------------------------------------------------------------
Iniciamos Transaccion: 
initTransactionRequest: Array
(
    [wSTransactionType] => TR_NORMAL_WS
    [commerceId] => 
    [buyOrder] => OC_20190306041220
    [sessionId] => OC_20190306041220
    [returnURL] => https://forastero.life/tienda/webpay/tbk-normal.php?action=result
    [finalURL] => https://forastero.life/tienda/webpay/tbk-normal.php?action=end
    [transactionDetails] => wsTransactionDetail Object
        (
            [sharesAmount] => 
            [sharesNumber] => 
            [amount] => 699800
            [commerceCode] => 597032380212
            [buyOrder] => OC_20190306041220
        )

    [wPMDetail] => 
)

initTransactionResponse: Array
(
    [return] => wsInitTransactionOutput Object
        (
            [token] => e40978eafd9b55ca2b49c4732f82b1accba3177eebe4a90f9957aba95d1a202e
            [url] => https://webpay3g.transbank.cl:443/webpayserver/initTransaction
        )

)

     Response Mensaje: Sesion iniciada con exito en Webpay
-----------------: --------------------------------------------------------------------
Iniciamos Transaccion: 
initTransactionRequest: Array
(
    [wSTransactionType] => TR_NORMAL_WS
    [commerceId] => 
    [buyOrder] => OC_20190306041515
    [sessionId] => OC_20190306041515
    [returnURL] => https://forastero.life/tienda/webpay/tbk-normal.php?action=result
    [finalURL] => https://forastero.life/tienda/webpay/tbk-normal.php?action=end
    [transactionDetails] => wsTransactionDetail Object
        (
            [sharesAmount] => 
            [sharesNumber] => 
            [amount] => 699800
            [commerceCode] => 597032380212
            [buyOrder] => OC_20190306041515
        )

    [wPMDetail] => 
)

initTransactionResponse: Array
(
    [return] => wsInitTransactionOutput Object
        (
            [token] => e891b5d4d4ba3f09cfd881a8f02edf532b41384060fb260979ae3cef6d267600
            [url] => https://webpay3g.transbank.cl:443/webpayserver/initTransaction
        )

)

     Response Mensaje: Sesion iniciada con exito en Webpay
initTransactionRequest: Array
(
    [tokenInput] => e891b5d4d4ba3f09cfd881a8f02edf532b41384060fb260979ae3cef6d267600
)

getTransactionResponse: Array
(
    [return] => transactionResultOutput Object
        (
            [accountingDate] => 0306
            [buyOrder] => OC_20190306041515
            [cardDetail] => cardDetail Object
                (
                    [cardNumber] => 0644
                    [cardExpirationDate] => 
                )

            [detailOutput] => wsTransactionDetailOutput Object
                (
                    [authorizationCode] => 847450
                    [paymentTypeCode] => VN
                    [responseCode] => 0
                    [sharesNumber] => 0
                    [amount] => 699800
                    [commerceCode] => 597032380212
                    [buyOrder] => OC_20190306041515
                )

            [sessionId] => OC_20190306041515
            [transactionDate] => 2019-03-06T16:15:17.480-03:00
            [urlRedirection] => https://webpay3g.transbank.cl:443/webpayserver/voucher.cgi
            [VCI] => TSY
        )

)

EXITO TOTALES: TOTAL A PAGAR Y VALOR PAGADO SON IGUALES
acknowledgeTransaction Request: Array
(
    [tokenInput] => e891b5d4d4ba3f09cfd881a8f02edf532b41384060fb260979ae3cef6d267600
)

acknowledgeTransaction Response: Array
(
)

Resultado: 
     Exito: Pago ACEPTADO por webpay (se deben guardatos para mostrar voucher)
Transaccion exitosa: End
initTransactionRequest: Array
(
    [tokenInput] => e891b5d4d4ba3f09cfd881a8f02edf532b41384060fb260979ae3cef6d267600
)

