<?xml version="1.0" encoding="utf-8"?>
<!-- Generator: Adobe Illustrator 16.0.0, SVG Export Plug-In . SVG Version: 6.00 Build 0)  -->
<!DOCTYPE svg PUBLIC "-//W3C//DTD SVG 1.1//EN" "http://www.w3.org/Graphics/SVG/1.1/DTD/svg11.dtd">
<svg version="1.1" id="Layer_1" xmlns="http://www.w3.org/2000/svg" xmlns:xlink="http://www.w3.org/1999/xlink" x="0px" y="0px"
	 width="250px" height="90px" viewBox="0 0 250 90" enable-background="new 0 0 250 90" xml:space="preserve">
<g>
	<path fill="#3C3C3B" d="M201.948,19.805c3.138,0,7.474,1.811,10.124,4.703c4.583,5.301,6.026,12.174,6.026,18.44
		c0,5.185-2.407,12.655-5.422,15.911c-3.376,3.373-6.025,3.979-7.354,3.979c-5.786,0-12.655-4.342-15.671-13.379
		c-0.964-3.016-1.445-6.75-1.445-10.729c0-6.267,2.773-12.536,5.905-15.427C196.646,21.133,199.418,19.805,201.948,19.805
		 M204.24,16.189c-8.078,0-14.103,3.375-17.842,6.629c-4.577,3.858-8.437,9.644-8.437,18.808c0,6.024,3.735,14.222,8.92,18.44
		c4.456,3.734,10.485,6.266,16.031,6.266c5.427,0,10.125-1.324,14.944-4.818c4.463-2.896,10.489-10.729,10.489-20.732
		C228.347,25.589,216.173,16.189,204.24,16.189 M151.443,17.877h-10.969c-2.173,0-4.824-0.965-6.273-2.049
		c-0.117-0.124-0.597-0.124-1.322,0.48c-0.363,0.365-0.363,0.845-0.363,0.964c0,2.05-0.477,5.062-1.205,7.476
		c-0.602,1.806-0.962,3.013-0.962,4.096c0,0.964,0.721,2.052,1.202,2.052c0.844,0,1.448-1.208,1.809-1.932
		c2.05-3.375,6.029-7.591,7.115-7.591c5.664,0,14.704,0.483,15.549,0.721c0.48,0.12,0.6,0.604,0.36,0.965
		c-5.669,9.161-14.102,22.904-17.596,27.726c-3.618,5.303-8.439,12.172-8.439,12.896c0,0.604,1.086,1.686,1.564,1.686
		c2.774-0.121,5.907-0.48,11.211-0.48c5.784,0,23.144,0.602,23.988,0.602c0.481,0,1.565-0.963,1.565-1.443
		c0.845-4.344,2.893-10.248,3.256-12.059c0.123-0.721,0-2.289-0.962-2.289c-0.487,0-1.449,1.088-2.533,2.654
		c-2.05,2.891-4.217,5.424-5.905,7.109c-0.968,0.967-1.689,1.449-2.895,1.449c-4.823,0-14.464-0.604-15.432-0.965
		c-0.359-0.119-0.842-0.723-0.359-1.207c5.061-8.197,15.188-24.71,18.441-29.53c3.019-4.459,5.187-6.873,7.233-9.644
		c0.36-0.484,0.12-1.446-0.36-1.806c-0.484-0.363-0.484-0.363-0.964-0.363C165.544,17.273,160.242,17.877,151.443,17.877
		 M99.25,59.826c-2.531,0-7.594-1.93-7.594-7.234c0-2.895,1.205-3.738,2.412-4.58c3.256-1.568,9.04-3.614,12.415-3.614
		c0.479,0,0.965,0.603,0.965,0.96c0,2.414,0,6.509-0.241,9.404c0,0.24-0.724,2.533-1.445,3.014
		C103.469,58.98,101.059,59.826,99.25,59.826 M102.865,16.189c-2.287,0-7.714,2.05-11.209,4.579
		c-5.664,3.738-9.039,7.115-9.039,10.61c0,0.601,0.722,1.566,1.445,1.566c0.6,0,6.631-3.012,7.835-3.979
		c0.241-0.239,0.724-0.961,0.724-1.322c-0.24-2.414,0.121-4.583,0.844-4.944c0.845-0.604,2.412-1.325,4.941-1.325
		c5.908,0,9.4,5.061,9.4,8.075c0,1.448-0.117,8.802-0.237,9.883c0,0.724-0.726,1.327-3.497,2.17
		C101.42,42.344,91.775,45,89.97,45.721c-1.808,0.845-3.619,1.447-4.823,3.011c-1.326,1.689-2.291,3.979-2.291,6.152
		c0,6.025,4.1,11.205,8.319,11.205c0.601,0,3.493-0.238,4.821-0.723c1.207-0.359,6.391-2.41,10.848-5.541
		c0.24-0.125,0.726,0.359,0.726,0.48c1.446,4.463,4.94,6.025,7.714,6.025c5.424,0,10.846-5.182,10.846-7.473
		c0-0.121,0-0.844-0.358-1.203c-0.241-0.361-0.36-0.605-0.725-0.361c-1.326,0.963-4.097,1.807-4.579,1.807
		c-0.967,0-4.822-0.484-4.822-6.029c0-1.324,0.48-16.51,0.48-21.214c0-5.061-0.6-7.471-2.411-10.001
		C111.906,19.202,108.895,16.189,102.865,16.189 M43.439,22.458c0,0.481,1.207,0.964,4.101,3.252
		c1.323,0.843,1.323,2.412,1.323,3.617v23.024c-0.12,7.229-0.48,8.438-5.183,10.004c-0.963,0.361-2.411,0.844-2.411,1.564
		c0,0.967,1.207,1.447,2.532,1.447c2.896,0,4.34-0.48,7.956-0.48c6.991,0,11.209,0.602,14.224,0.602c1.808,0,2.892-0.48,2.892-1.084
		c0-0.484-0.241-1.326-2.169-1.93l-5.545-1.445c-2.168-0.359-2.891-2.652-3.133-6.145c-0.121-1.812-0.725-23.628-0.725-26.04
		c0-0.601,0.363-1.687,1.207-2.651c1.206-1.325,3.256-1.687,5.303-1.687c2.412,0,5.306,1.446,6.631,2.651
		c0.362,0.241,1.446,0.485,1.687,0.364c0.725-0.364,3.619-3.618,4.942-5.547c0.363-0.601,0.724-1.446,0.724-1.687
		c0-1.086-1.084-4.099-6.026-4.099c-3.739,0-9.04,3.013-13.742,7.474c-0.241,0.12-0.845,0-0.845-0.484
		c0-2.287,0.242-4.459,0.242-6.629c0-0.36-0.603-1.443-1.086-1.443c-0.36,0-0.964,0.479-2.412,1.443
		c-1.204,0.724-4.942,2.53-8.917,3.858C43.68,20.892,43.439,22.094,43.439,22.458 M20.416,17.877c-0.481,0-0.963-0.604-0.963-0.965
		v-5.665c0-0.241-1.083-1.328-1.687-1.328c-0.484,0-1.326,0.967-2.774,2.653c-1.688,2.05-5.424,4.944-9.641,8.319
		c-0.364,0.36-0.726,0.845-0.726,1.322c0,0.364,0.726,0.965,1.688,1.33c2.412,0.724,4.581,1.567,4.581,2.409
		c0,4.22-0.483,22.301-0.483,26.758c0,3.377,0.241,5.906,1.569,7.959c1.448,2.65,5.666,5.662,10.607,5.662
		c5.424,0,9.643-2.166,12.896-5.303c0.843-0.844,1.688-2.049,1.688-3.014c0-1.084-0.604-1.326-0.724-1.326
		c-0.482,0-0.724,0.121-1.808,0.727c-1.807,1.08-4.34,1.807-5.907,1.807c-2.53,0-5.062-0.242-7.353-2.291
		c-1.324-1.328-2.047-2.891-2.047-5.906c0-5.789,0.12-23.504,0.239-25.915c0-0.242,0.484-0.843,1.084-0.843h13.139
		c0.845,0,3.135-0.244,3.135-1.328c0-1.566-0.362-4.941-0.362-4.578c0-0.363-1.204-0.967-1.325-0.967
		C34.762,17.395,23.069,17.877,20.416,17.877"/>
	<path fill="#3C3C3B" d="M241.901,15.664c1.714-1.681,2.566-3.706,2.566-6.078c0-2.371-0.853-4.399-2.566-6.073
		C240.199,1.835,238.139,1,235.722,1s-4.481,0.835-6.188,2.513c-1.708,1.674-2.564,3.703-2.564,6.073
		c0,2.372,0.856,4.397,2.564,6.078c1.707,1.674,3.771,2.513,6.188,2.513S240.199,17.338,241.901,15.664 M240.479,4.818
		c1.271,1.268,1.91,2.853,1.91,4.769c0,1.896-0.644,3.485-1.918,4.757c-1.282,1.277-2.867,1.906-4.75,1.906
		c-1.904,0-3.488-0.627-4.763-1.893c-1.271-1.266-1.912-2.856-1.912-4.77c0-1.898,0.644-3.484,1.925-4.758
		c1.283-1.275,2.864-1.91,4.75-1.91C237.621,2.918,239.207,3.55,240.479,4.818 M239.656,14.145l-1.956-3.847
		c0.499-0.205,0.91-0.51,1.235-0.912c0.321-0.407,0.479-0.909,0.479-1.503c0-0.795-0.281-1.469-0.855-2.035
		c-0.572-0.558-1.32-0.839-2.233-0.839h-3.795v9.136h2.078v-3.538l0.98,0.001l1.691,3.54L239.656,14.145z M236.987,7.034
		c0.233,0.231,0.353,0.513,0.353,0.848c0,0.314-0.123,0.589-0.365,0.826c-0.239,0.238-0.551,0.356-0.919,0.356h-1.446V6.688h1.446
		C236.445,6.688,236.755,6.806,236.987,7.034"/>
	<path fill="#3C3C3B" d="M214.509,77.098c0.546,0.268,1.009,0.766,1.384,1.492s0.564,1.914,0.564,3.566
		c0,0.734-0.033,1.312-0.1,1.73c-0.068,0.416-0.271,1.047-0.616,1.893c-0.344,0.84-1.317,1.264-2.924,1.264
		c-0.7,0-1.317-0.117-1.844-0.352c-0.529-0.236-1.003-0.717-1.432-1.443c-0.428-0.721-0.642-1.961-0.642-3.715
		c0-1.605,0.191-2.695,0.578-3.273c0.385-0.57,0.835-0.975,1.354-1.209c0.521-0.236,1.089-0.354,1.71-0.354
		C213.31,76.697,213.97,76.832,214.509,77.098 M208.245,76.834c-1.052,1.201-1.58,2.842-1.58,4.936c0,2.072,0.432,3.6,1.294,4.568
		c0.862,0.971,1.63,1.59,2.31,1.857c0.679,0.27,1.51,0.402,2.498,0.402c1.073,0,1.965-0.152,2.687-0.465
		c0.72-0.311,1.443-0.902,2.17-1.783c0.728-0.879,1.097-2.363,1.097-4.453c0-2.062-0.376-3.545-1.12-4.457
		c-0.743-0.912-1.495-1.539-2.245-1.883c-0.757-0.346-1.67-0.516-2.739-0.516C210.757,75.041,209.301,75.641,208.245,76.834
		 M195.02,70.738c-0.338,0.385-0.623,0.66-0.857,0.824c-0.233,0.162-0.533,0.246-0.902,0.246c-0.47,0-0.988-0.182-1.557-0.533
		c-0.568-0.354-1.115-0.537-1.631-0.537c-0.704,0-1.271,0.133-1.694,0.398c-0.429,0.266-0.865,0.705-1.319,1.324l0.702,1.082
		c0.336-0.367,0.62-0.635,0.852-0.811c0.234-0.172,0.531-0.262,0.882-0.262c0.466,0,0.988,0.184,1.558,0.535
		c0.569,0.354,1.111,0.537,1.63,0.537c0.723,0,1.297-0.125,1.721-0.367c0.426-0.24,0.865-0.648,1.317-1.217L195.02,70.738z
		 M186.606,88.369h2.059l-0.126-6.725c0-0.334-0.016-0.922-0.05-1.76c-0.035-0.834-0.068-1.463-0.101-1.883
		c0.253,0.502,0.534,1.051,0.845,1.645c0.311,0.59,0.645,1.182,0.997,1.766l4.211,6.957h2.083V75.24h-1.96l0.076,6.617
		c0,0.641,0.032,1.33,0.101,2.08c0.066,0.746,0.11,1.254,0.123,1.521c-0.265-0.488-0.575-1.049-0.928-1.695
		c-0.351-0.645-0.604-1.1-0.75-1.365l-4.27-7.158h-2.311V88.369z M168.08,88.369h8.388v-1.754h-6.381v-4.293h4.922v-1.658h-4.922
		V76.9h5.876l0.274-1.66h-8.157V88.369z M155.678,75.268c-0.804-0.219-1.642-0.326-2.511-0.326c-1.422,0-2.586,0.359-3.488,1.084
		c-0.903,0.719-1.355,1.646-1.355,2.771c0,0.807,0.284,1.512,0.85,2.119c0.573,0.604,1.332,1.033,2.287,1.285l1.933,0.504
		c0.905,0.234,1.552,0.525,1.948,0.869c0.393,0.346,0.588,0.777,0.588,1.299c0,0.674-0.311,1.197-0.93,1.576
		c-0.618,0.379-1.356,0.564-2.207,0.564c-1.407,0-2.788-0.385-4.142-1.152l-0.832,1.623c1.473,0.795,3.091,1.188,4.845,1.188
		c1.324,0,2.381-0.217,3.179-0.652c0.794-0.439,1.375-0.951,1.741-1.549c0.37-0.596,0.553-1.246,0.553-1.947
		c0-0.959-0.229-1.666-0.688-2.125c-0.46-0.465-0.913-0.803-1.354-1.021c-0.446-0.215-0.954-0.402-1.52-0.555l-1.782-0.479
		c-1.543-0.418-2.311-1.035-2.311-1.861c0-0.582,0.252-1.045,0.754-1.385c0.502-0.334,1.182-0.5,2.031-0.5
		c1.205,0,2.404,0.361,3.593,1.08l0.902-1.459C157.173,75.805,156.48,75.484,155.678,75.268 M136.222,88.369h2.009V75.24h-2.009
		V88.369z M119.402,76.9c0.767,0,1.402,0.078,1.905,0.24c0.503,0.158,1.054,0.549,1.659,1.166c0.603,0.621,0.902,1.822,0.902,3.6
		c0,1.428-0.257,2.514-0.766,3.262c-0.51,0.746-1.084,1.189-1.721,1.332c-0.636,0.145-1.214,0.213-1.732,0.213h-1.906V76.9H119.402z
		 M115.734,88.369h3.967c0.488,0,0.938-0.014,1.359-0.047c0.415-0.033,0.916-0.135,1.504-0.303c0.584-0.166,1.315-0.768,2.184-1.799
		c0.868-1.029,1.303-2.512,1.303-4.438c0-1.762-0.309-3.086-0.927-3.975s-1.288-1.498-2.009-1.826
		c-0.721-0.326-1.321-0.533-1.808-0.615c-0.486-0.084-1.353-0.127-2.609-0.127h-2.964V88.369z"/>
</g>
</svg>
